{
    "measurements": {
        "m0": [
            {
                "technology": "LTE",
                "cell_id": "131078",
                "MCC": "505",
                "MNC": "01",
                "PCI": "6",
                "TAC": "7",
                "RSPR": "-84",
                "time": 1649151442504,
                "registered?": "1"
            }
        ],
        "m1": [
            {
                "technology": "LTE",
                "cell_id": "131078",
                "MCC": "505",
                "MNC": "01",
                "PCI": "6",
                "TAC": "7",
                "RSPR": "-84",
                "time": 1649151443485,
                "registered?": "1"
            }
        ],
        "m2": [
            {
                "technology": "LTE",
                "cell_id": "131078",
                "MCC": "505",
                "MNC": "01",
                "PCI": "6",
                "TAC": "7",
                "RSPR": "-84",
                "time": 1649151444485,
                "registered?": "1"
            }
        ],
        "m3": [
            {
                "technology": "LTE",
                "cell_id": "131078",
                "MCC": "505",
                "MNC": "01",
                "PCI": "6",
                "TAC": "7",
                "RSPR": "-83",
                "time": 1649151445491,
                "registered?": "1"
            }
        ],
        "m4": [
            {
                "technology": "LTE",
                "cell_id": "131078",
                "MCC": "505",
                "MNC": "01",
                "PCI": "6",
                "TAC": "7",
                "RSPR": "-83",
                "time": 1649151446472,
                "registered?": "1"
            }
        ],
        "m5": [
            {
                "technology": "LTE",
                "cell_id": "131078",
                "MCC": "505",
                "MNC": "01",
                "PCI": "6",
                "TAC": "7",
                "RSPR": "-82",
                "time": 1649151447503,
                "registered?": "1"
            }
        ],
        "m6": [
            {
                "technology": "LTE",
                "cell_id": "131078",
                "MCC": "505",
                "MNC": "01",
                "PCI": "6",
                "TAC": "7",
                "RSPR": "-82",
                "time": 1649151448483,
                "registered?": "1"
            }
        ],
        "m7": [
            {
                "technology": "LTE",
                "cell_id": "131078",
                "MCC": "505",
                "MNC": "01",
                "PCI": "6",
                "TAC": "7",
                "RSPR": "-82",
                "time": 1649151449503,
                "registered?": "1"
            }
        ],
        "m8": [
            {
                "technology": "LTE",
                "cell_id": "131078",
                "MCC": "505",
                "MNC": "01",
                "PCI": "6",
                "TAC": "7",
                "RSPR": "-82",
                "time": 1649151450484,
                "registered?": "1"
            }
        ],
        "m9": [
            {
                "technology": "LTE",
                "cell_id": "131078",
                "MCC": "505",
                "MNC": "01",
                "PCI": "6",
                "TAC": "7",
                "RSPR": "-82",
                "time": 1649151451474,
                "registered?": "1"
            }
        ],
        "m10": [
            {
                "technology": "LTE",
                "cell_id": "131078",
                "MCC": "505",
                "MNC": "01",
                "PCI": "6",
                "TAC": "7",
                "RSPR": "-81",
                "time": 1649151452505,
                "registered?": "1"
            }
        ],
        "m11": [
            {
                "technology": "LTE",
                "cell_id": "131078",
                "MCC": "505",
                "MNC": "01",
                "PCI": "6",
                "TAC": "7",
                "RSPR": "-81",
                "time": 1649151453483,
                "registered?": "1"
            }
        ],
        "m12": [
            {
                "technology": "LTE",
                "cell_id": "131078",
                "MCC": "505",
                "MNC": "01",
                "PCI": "6",
                "TAC": "7",
                "RSPR": "-81",
                "time": 1649151454483,
                "registered?": "1"
            }
        ],
        "m13": [
            {
                "technology": "LTE",
                "cell_id": "131078",
                "MCC": "505",
                "MNC": "01",
                "PCI": "6",
                "TAC": "7",
                "RSPR": "-82",
                "time": 1649151455501,
                "registered?": "1"
            }
        ],
        "m14": [
            {
                "technology": "LTE",
                "cell_id": "131078",
                "MCC": "505",
                "MNC": "01",
                "PCI": "6",
                "TAC": "7",
                "RSPR": "-82",
                "time": 1649151456477,
                "registered?": "1"
            }
        ],
        "m15": [
            {
                "technology": "LTE",
                "cell_id": "131078",
                "MCC": "505",
                "MNC": "01",
                "PCI": "6",
                "TAC": "7",
                "RSPR": "-82",
                "time": 1649151457474,
                "registered?": "1"
            }
        ],
        "m16": [
            {
                "technology": "LTE",
                "cell_id": "131078",
                "MCC": "505",
                "MNC": "01",
                "PCI": "6",
                "TAC": "7",
                "RSPR": "-82",
                "time": 1649151458505,
                "registered?": "1"
            }
        ],
        "m17": [
            {
                "technology": "LTE",
                "cell_id": "131078",
                "MCC": "505",
                "MNC": "01",
                "PCI": "6",
                "TAC": "7",
                "RSPR": "-82",
                "time": 1649151459484,
                "registered?": "1"
            }
        ],
        "m18": [
            {
                "technology": "LTE",
                "cell_id": "131078",
                "MCC": "505",
                "MNC": "01",
                "PCI": "6",
                "TAC": "7",
                "RSPR": "-82",
                "time": 1649151460479,
                "registered?": "1"
            }
        ],
        "m19": [
            {
                "technology": "LTE",
                "cell_id": "131078",
                "MCC": "505",
                "MNC": "01",
                "PCI": "6",
                "TAC": "7",
                "RSPR": "-82",
                "time": 1649151461501,
                "registered?": "1"
            }
        ],
        "m20": [
            {
                "technology": "LTE",
                "cell_id": "131078",
                "MCC": "505",
                "MNC": "01",
                "PCI": "6",
                "TAC": "7",
                "RSPR": "-82",
                "time": 1649151462479,
                "registered?": "1"
            }
        ],
        "m21": [
            {
                "technology": "LTE",
                "cell_id": "131078",
                "MCC": "505",
                "MNC": "01",
                "PCI": "6",
                "TAC": "7",
                "RSPR": "-82",
                "time": 1649151463473,
                "registered?": "1"
            }
        ],
        "m22": [
            {
                "technology": "LTE",
                "cell_id": "131078",
                "MCC": "505",
                "MNC": "01",
                "PCI": "6",
                "TAC": "7",
                "RSPR": "-82",
                "time": 1649151464505,
                "registered?": "1"
            }
        ],
        "m23": [
            {
                "technology": "LTE",
                "cell_id": "131078",
                "MCC": "505",
                "MNC": "01",
                "PCI": "6",
                "TAC": "7",
                "RSPR": "-82",
                "time": 1649151465483,
                "registered?": "1"
            }
        ],
        "m24": [
            {
                "technology": "LTE",
                "cell_id": "131078",
                "MCC": "505",
                "MNC": "01",
                "PCI": "6",
                "TAC": "7",
                "RSPR": "-84",
                "time": 1649151466495,
                "registered?": "1"
            }
        ],
        "m25": [
            {
                "technology": "LTE",
                "cell_id": "131078",
                "MCC": "505",
                "MNC": "01",
                "PCI": "6",
                "TAC": "7",
                "RSPR": "-84",
                "time": 1649151467484,
                "registered?": "1"
            }
        ],
        "m26": [
            {
                "technology": "LTE",
                "cell_id": "131078",
                "MCC": "505",
                "MNC": "01",
                "PCI": "6",
                "TAC": "7",
                "RSPR": "-84",
                "time": 1649151468480,
                "registered?": "1"
            }
        ],
        "m27": [
            {
                "technology": "LTE",
                "cell_id": "131078",
                "MCC": "505",
                "MNC": "01",
                "PCI": "6",
                "TAC": "7",
                "RSPR": "-83",
                "time": 1649151469479,
                "registered?": "1"
            }
        ],
        "m28": [
            {
                "technology": "LTE",
                "cell_id": "131078",
                "MCC": "505",
                "MNC": "01",
                "PCI": "6",
                "TAC": "7",
                "RSPR": "-83",
                "time": 1649151470483,
                "registered?": "1"
            }
        ],
        "m29": [
            {
                "technology": "LTE",
                "cell_id": "131078",
                "MCC": "505",
                "MNC": "01",
                "PCI": "6",
                "TAC": "7",
                "RSPR": "-83",
                "time": 1649151471504,
                "registered?": "1"
            }
        ],
        "m30": [
            {
                "technology": "LTE",
                "cell_id": "131078",
                "MCC": "505",
                "MNC": "01",
                "PCI": "6",
                "TAC": "7",
                "RSPR": "-83",
                "time": 1649151472484,
                "registered?": "1"
            }
        ],
        "m31": [
            {
                "technology": "LTE",
                "cell_id": "131078",
                "MCC": "505",
                "MNC": "01",
                "PCI": "6",
                "TAC": "7",
                "RSPR": "-83",
                "time": 1649151473479,
                "registered?": "1"
            }
        ],
        "m32": [
            {
                "technology": "LTE",
                "cell_id": "131078",
                "MCC": "505",
                "MNC": "01",
                "PCI": "6",
                "TAC": "7",
                "RSPR": "-81",
                "time": 1649151474492,
                "registered?": "1"
            }
        ],
        "m33": [
            {
                "technology": "LTE",
                "cell_id": "131078",
                "MCC": "505",
                "MNC": "01",
                "PCI": "6",
                "TAC": "7",
                "RSPR": "-81",
                "time": 1649151475474,
                "registered?": "1"
            }
        ],
        "m34": [
            {
                "technology": "LTE",
                "cell_id": "131078",
                "MCC": "505",
                "MNC": "01",
                "PCI": "6",
                "TAC": "7",
                "RSPR": "-81",
                "time": 1649151476511,
                "registered?": "1"
            }
        ],
        "m35": [
            {
                "technology": "LTE",
                "cell_id": "131078",
                "MCC": "505",
                "MNC": "01",
                "PCI": "6",
                "TAC": "7",
                "RSPR": "-81",
                "time": 1649151477483,
                "registered?": "1"
            }
        ],
        "m36": [
            {
                "technology": "LTE",
                "cell_id": "131078",
                "MCC": "505",
                "MNC": "01",
                "PCI": "6",
                "TAC": "7",
                "RSPR": "-81",
                "time": 1649151478484,
                "registered?": "1"
            }
        ],
        "m37": [
            {
                "technology": "LTE",
                "cell_id": "131078",
                "MCC": "505",
                "MNC": "01",
                "PCI": "6",
                "TAC": "7",
                "RSPR": "-80",
                "time": 1649151479504,
                "registered?": "1"
            }
        ],
        "m38": [
            {
                "technology": "LTE",
                "cell_id": "131078",
                "MCC": "505",
                "MNC": "01",
                "PCI": "6",
                "TAC": "7",
                "RSPR": "-80",
                "time": 1649151480476,
                "registered?": "1"
            }
        ],
        "m39": [
            {
                "technology": "LTE",
                "cell_id": "131078",
                "MCC": "505",
                "MNC": "01",
                "PCI": "6",
                "TAC": "7",
                "RSPR": "-80",
                "time": 1649151481473,
                "registered?": "1"
            }
        ],
        "m40": [
            {
                "technology": "LTE",
                "cell_id": "131078",
                "MCC": "505",
                "MNC": "01",
                "PCI": "6",
                "TAC": "7",
                "RSPR": "-82",
                "time": 1649151482505,
                "registered?": "1"
            }
        ],
        "m41": [
            {
                "technology": "LTE",
                "cell_id": "131078",
                "MCC": "505",
                "MNC": "01",
                "PCI": "6",
                "TAC": "7",
                "RSPR": "-82",
                "time": 1649151483481,
                "registered?": "1"
            }
        ],
        "m42": [
            {
                "technology": "LTE",
                "cell_id": "131078",
                "MCC": "505",
                "MNC": "01",
                "PCI": "6",
                "TAC": "7",
                "RSPR": "-82",
                "time": 1649151484484,
                "registered?": "1"
            }
        ],
        "m43": [
            {
                "technology": "LTE",
                "cell_id": "131078",
                "MCC": "505",
                "MNC": "01",
                "PCI": "6",
                "TAC": "7",
                "RSPR": "-82",
                "time": 1649151485496,
                "registered?": "1"
            }
        ],
        "m44": [
            {
                "technology": "LTE",
                "cell_id": "131078",
                "MCC": "505",
                "MNC": "01",
                "PCI": "6",
                "TAC": "7",
                "RSPR": "-82",
                "time": 1649151486474,
                "registered?": "1"
            }
        ],
        "m45": [
            {
                "technology": "LTE",
                "cell_id": "131078",
                "MCC": "505",
                "MNC": "01",
                "PCI": "6",
                "TAC": "7",
                "RSPR": "-81",
                "time": 1649151487504,
                "registered?": "1"
            }
        ],
        "m46": [
            {
                "technology": "LTE",
                "cell_id": "131078",
                "MCC": "505",
                "MNC": "01",
                "PCI": "6",
                "TAC": "7",
                "RSPR": "-81",
                "time": 1649151488487,
                "registered?": "1"
            }
        ],
        "m47": [
            {
                "technology": "LTE",
                "cell_id": "131078",
                "MCC": "505",
                "MNC": "01",
                "PCI": "6",
                "TAC": "7",
                "RSPR": "-81",
                "time": 1649151489511,
                "registered?": "1"
            }
        ],
        "m48": [
            {
                "technology": "LTE",
                "cell_id": "131078",
                "MCC": "505",
                "MNC": "01",
                "PCI": "6",
                "TAC": "7",
                "RSPR": "-81",
                "time": 1649151490485,
                "registered?": "1"
            }
        ],
        "m49": [
            {
                "technology": "LTE",
                "cell_id": "131078",
                "MCC": "505",
                "MNC": "01",
                "PCI": "6",
                "TAC": "7",
                "RSPR": "-81",
                "time": 1649151491478,
                "registered?": "1"
            }
        ],
        "m50": [
            {
                "technology": "LTE",
                "cell_id": "131078",
                "MCC": "505",
                "MNC": "01",
                "PCI": "6",
                "TAC": "7",
                "RSPR": "-85",
                "time": 1649151492480,
                "registered?": "1"
            }
        ],
        "m51": [
            {
                "technology": "LTE",
                "cell_id": "131078",
                "MCC": "505",
                "MNC": "01",
                "PCI": "6",
                "TAC": "7",
                "RSPR": "-85",
                "time": 1649151493484,
                "registered?": "1"
            }
        ],
        "m52": [
            {
                "technology": "LTE",
                "cell_id": "131078",
                "MCC": "505",
                "MNC": "01",
                "PCI": "6",
                "TAC": "7",
                "RSPR": "-89",
                "time": 1649151494504,
                "registered?": "1"
            }
        ],
        "m53": [
            {
                "technology": "LTE",
                "cell_id": "131078",
                "MCC": "505",
                "MNC": "01",
                "PCI": "6",
                "TAC": "7",
                "RSPR": "-89",
                "time": 1649151495484,
                "registered?": "1"
            }
        ],
        "m54": [
            {
                "technology": "LTE",
                "cell_id": "131078",
                "MCC": "505",
                "MNC": "01",
                "PCI": "6",
                "TAC": "7",
                "RSPR": "-85",
                "time": 1649151496504,
                "registered?": "1"
            }
        ],
        "m55": [
            {
                "technology": "LTE",
                "cell_id": "131078",
                "MCC": "505",
                "MNC": "01",
                "PCI": "6",
                "TAC": "7",
                "RSPR": "-85",
                "time": 1649151497483,
                "registered?": "1"
            }
        ],
        "m56": [
            {
                "technology": "LTE",
                "cell_id": "131078",
                "MCC": "505",
                "MNC": "01",
                "PCI": "6",
                "TAC": "7",
                "RSPR": "-85",
                "time": 1649151498503,
                "registered?": "1"
            }
        ],
        "m57": [
            {
                "technology": "LTE",
                "cell_id": "131078",
                "MCC": "505",
                "MNC": "01",
                "PCI": "6",
                "TAC": "7",
                "RSPR": "-85",
                "time": 1649151499484,
                "registered?": "1"
            }
        ],
        "m58": [
            {
                "technology": "LTE",
                "cell_id": "131078",
                "MCC": "505",
                "MNC": "01",
                "PCI": "6",
                "TAC": "7",
                "RSPR": "-86",
                "time": 1649151500504,
                "registered?": "1"
            }
        ],
        "m59": [
            {
                "technology": "LTE",
                "cell_id": "131078",
                "MCC": "505",
                "MNC": "01",
                "PCI": "6",
                "TAC": "7",
                "RSPR": "-86",
                "time": 1649151501481,
                "registered?": "1"
            }
        ],
        "m60": [
            {
                "technology": "LTE",
                "cell_id": "131078",
                "MCC": "505",
                "MNC": "01",
                "PCI": "6",
                "TAC": "7",
                "RSPR": "-88",
                "time": 1649151502504,
                "registered?": "1"
            }
        ],
        "m61": [
            {
                "technology": "LTE",
                "cell_id": "131078",
                "MCC": "505",
                "MNC": "01",
                "PCI": "6",
                "TAC": "7",
                "RSPR": "-88",
                "time": 1649151503480,
                "registered?": "1"
            }
        ],
        "m62": [
            {
                "technology": "LTE",
                "cell_id": "131078",
                "MCC": "505",
                "MNC": "01",
                "PCI": "6",
                "TAC": "7",
                "RSPR": "-88",
                "time": 1649151504483,
                "registered?": "1"
            }
        ],
        "m63": [
            {
                "technology": "LTE",
                "cell_id": "131078",
                "MCC": "505",
                "MNC": "01",
                "PCI": "6",
                "TAC": "7",
                "RSPR": "-87",
                "time": 1649151505503,
                "registered?": "1"
            }
        ],
        "m64": [
            {
                "technology": "LTE",
                "cell_id": "131078",
                "MCC": "505",
                "MNC": "01",
                "PCI": "6",
                "TAC": "7",
                "RSPR": "-87",
                "time": 1649151506487,
                "registered?": "1"
            }
        ],
        "m65": [
            {
                "technology": "LTE",
                "cell_id": "131078",
                "MCC": "505",
                "MNC": "01",
                "PCI": "6",
                "TAC": "7",
                "RSPR": "-83",
                "time": 1649151507506,
                "registered?": "1"
            }
        ],
        "m66": [
            {
                "technology": "LTE",
                "cell_id": "131078",
                "MCC": "505",
                "MNC": "01",
                "PCI": "6",
                "TAC": "7",
                "RSPR": "-83",
                "time": 1649151508485,
                "registered?": "1"
            }
        ],
        "m67": [
            {
                "technology": "LTE",
                "cell_id": "131078",
                "MCC": "505",
                "MNC": "01",
                "PCI": "6",
                "TAC": "7",
                "RSPR": "-83",
                "time": 1649151509483,
                "registered?": "1"
            }
        ],
        "m68": [
            {
                "technology": "LTE",
                "cell_id": "131078",
                "MCC": "505",
                "MNC": "01",
                "PCI": "6",
                "TAC": "7",
                "RSPR": "-86",
                "time": 1649151510514,
                "registered?": "1"
            }
        ],
        "m69": [
            {
                "technology": "LTE",
                "cell_id": "131078",
                "MCC": "505",
                "MNC": "01",
                "PCI": "6",
                "TAC": "7",
                "RSPR": "-86",
                "time": 1649151511484,
                "registered?": "1"
            }
        ],
        "m70": [
            {
                "technology": "LTE",
                "cell_id": "131078",
                "MCC": "505",
                "MNC": "01",
                "PCI": "6",
                "TAC": "7",
                "RSPR": "-86",
                "time": 1649151512484,
                "registered?": "1"
            }
        ],
        "m71": [
            {
                "technology": "LTE",
                "cell_id": "131078",
                "MCC": "505",
                "MNC": "01",
                "PCI": "6",
                "TAC": "7",
                "RSPR": "-82",
                "time": 1649151513502,
                "registered?": "1"
            }
        ],
        "m72": [
            {
                "technology": "LTE",
                "cell_id": "131078",
                "MCC": "505",
                "MNC": "01",
                "PCI": "6",
                "TAC": "7",
                "RSPR": "-82",
                "time": 1649151514485,
                "registered?": "1"
            }
        ],
        "m73": [
            {
                "technology": "LTE",
                "cell_id": "131078",
                "MCC": "505",
                "MNC": "01",
                "PCI": "6",
                "TAC": "7",
                "RSPR": "-82",
                "time": 1649151515503,
                "registered?": "1"
            }
        ],
        "m74": [
            {
                "technology": "LTE",
                "cell_id": "131078",
                "MCC": "505",
                "MNC": "01",
                "PCI": "6",
                "TAC": "7",
                "RSPR": "-82",
                "time": 1649151516484,
                "registered?": "1"
            }
        ],
        "m75": [
            {
                "technology": "LTE",
                "cell_id": "131078",
                "MCC": "505",
                "MNC": "01",
                "PCI": "6",
                "TAC": "7",
                "RSPR": "-82",
                "time": 1649151517484,
                "registered?": "1"
            }
        ],
        "m76": [
            {
                "technology": "LTE",
                "cell_id": "131078",
                "MCC": "505",
                "MNC": "01",
                "PCI": "6",
                "TAC": "7",
                "RSPR": "-88",
                "time": 1649151518504,
                "registered?": "1"
            }
        ],
        "m77": [
            {
                "technology": "LTE",
                "cell_id": "131078",
                "MCC": "505",
                "MNC": "01",
                "PCI": "6",
                "TAC": "7",
                "RSPR": "-88",
                "time": 1649151519485,
                "registered?": "1"
            }
        ],
        "m78": [
            {
                "technology": "LTE",
                "cell_id": "131078",
                "MCC": "505",
                "MNC": "01",
                "PCI": "6",
                "TAC": "7",
                "RSPR": "-88",
                "time": 1649151520484,
                "registered?": "1"
            }
        ],
        "m79": [
            {
                "technology": "LTE",
                "cell_id": "131078",
                "MCC": "505",
                "MNC": "01",
                "PCI": "6",
                "TAC": "7",
                "RSPR": "-83",
                "time": 1649151521504,
                "registered?": "1"
            }
        ],
        "m80": [
            {
                "technology": "LTE",
                "cell_id": "131078",
                "MCC": "505",
                "MNC": "01",
                "PCI": "6",
                "TAC": "7",
                "RSPR": "-83",
                "time": 1649151522484,
                "registered?": "1"
            }
        ],
        "m81": [
            {
                "technology": "LTE",
                "cell_id": "131078",
                "MCC": "505",
                "MNC": "01",
                "PCI": "6",
                "TAC": "7",
                "RSPR": "-83",
                "time": 1649151523483,
                "registered?": "1"
            }
        ],
        "m82": [
            {
                "technology": "LTE",
                "cell_id": "131078",
                "MCC": "505",
                "MNC": "01",
                "PCI": "6",
                "TAC": "7",
                "RSPR": "-81",
                "time": 1649151524499,
                "registered?": "1"
            }
        ],
        "m83": [
            {
                "technology": "LTE",
                "cell_id": "131078",
                "MCC": "505",
                "MNC": "01",
                "PCI": "6",
                "TAC": "7",
                "RSPR": "-81",
                "time": 1649151525473,
                "registered?": "1"
            }
        ],
        "m84": [
            {
                "technology": "LTE",
                "cell_id": "131078",
                "MCC": "505",
                "MNC": "01",
                "PCI": "6",
                "TAC": "7",
                "RSPR": "-81",
                "time": 1649151526482,
                "registered?": "1"
            }
        ],
        "m85": [
            {
                "technology": "LTE",
                "cell_id": "131078",
                "MCC": "505",
                "MNC": "01",
                "PCI": "6",
                "TAC": "7",
                "RSPR": "-79",
                "time": 1649151527510,
                "registered?": "1"
            }
        ],
        "m86": [
            {
                "technology": "LTE",
                "cell_id": "131078",
                "MCC": "505",
                "MNC": "01",
                "PCI": "6",
                "TAC": "7",
                "RSPR": "-79",
                "time": 1649151528482,
                "registered?": "1"
            }
        ],
        "m87": [
            {
                "technology": "LTE",
                "cell_id": "131078",
                "MCC": "505",
                "MNC": "01",
                "PCI": "6",
                "TAC": "7",
                "RSPR": "-88",
                "time": 1649151529507,
                "registered?": "1"
            }
        ],
        "m88": [
            {
                "technology": "LTE",
                "cell_id": "131078",
                "MCC": "505",
                "MNC": "01",
                "PCI": "6",
                "TAC": "7",
                "RSPR": "-88",
                "time": 1649151530484,
                "registered?": "1"
            }
        ],
        "m89": [
            {
                "technology": "LTE",
                "cell_id": "131078",
                "MCC": "505",
                "MNC": "01",
                "PCI": "6",
                "TAC": "7",
                "RSPR": "-88",
                "time": 1649151531483,
                "registered?": "1"
            }
        ],
        "m90": [
            {
                "technology": "LTE",
                "cell_id": "131078",
                "MCC": "505",
                "MNC": "01",
                "PCI": "6",
                "TAC": "7",
                "RSPR": "-90",
                "time": 1649151532503,
                "registered?": "1"
            }
        ],
        "m91": [
            {
                "technology": "LTE",
                "cell_id": "131078",
                "MCC": "505",
                "MNC": "01",
                "PCI": "6",
                "TAC": "7",
                "RSPR": "-90",
                "time": 1649151533483,
                "registered?": "1"
            }
        ],
        "m92": [
            {
                "technology": "LTE",
                "cell_id": "131078",
                "MCC": "505",
                "MNC": "01",
                "PCI": "6",
                "TAC": "7",
                "RSPR": "-90",
                "time": 1649151534506,
                "registered?": "1"
            }
        ],
        "m93": [
            {
                "technology": "LTE",
                "cell_id": "131078",
                "MCC": "505",
                "MNC": "01",
                "PCI": "6",
                "TAC": "7",
                "RSPR": "-90",
                "time": 1649151535484,
                "registered?": "1"
            }
        ],
        "m94": [
            {
                "technology": "LTE",
                "cell_id": "131078",
                "MCC": "505",
                "MNC": "01",
                "PCI": "6",
                "TAC": "7",
                "RSPR": "-90",
                "time": 1649151536483,
                "registered?": "1"
            }
        ],
        "m95": [
            {
                "technology": "LTE",
                "cell_id": "131078",
                "MCC": "505",
                "MNC": "01",
                "PCI": "6",
                "TAC": "7",
                "RSPR": "-91",
                "time": 1649151537507,
                "registered?": "1"
            }
        ],
        "m96": [
            {
                "technology": "LTE",
                "cell_id": "131078",
                "MCC": "505",
                "MNC": "01",
                "PCI": "6",
                "TAC": "7",
                "RSPR": "-91",
                "time": 1649151538485,
                "registered?": "1"
            }
        ],
        "m97": [
            {
                "technology": "LTE",
                "cell_id": "131078",
                "MCC": "505",
                "MNC": "01",
                "PCI": "6",
                "TAC": "7",
                "RSPR": "-94",
                "time": 1649151539505,
                "registered?": "1"
            }
        ],
        "m98": [
            {
                "technology": "LTE",
                "cell_id": "131078",
                "MCC": "505",
                "MNC": "01",
                "PCI": "6",
                "TAC": "7",
                "RSPR": "-94",
                "time": 1649151540484,
                "registered?": "1"
            }
        ],
        "m99": [
            {
                "technology": "LTE",
                "cell_id": "131078",
                "MCC": "505",
                "MNC": "01",
                "PCI": "6",
                "TAC": "7",
                "RSPR": "-87",
                "time": 1649151541506,
                "registered?": "1"
            }
        ],
        "m100": [
            {
                "technology": "LTE",
                "cell_id": "131078",
                "MCC": "505",
                "MNC": "01",
                "PCI": "6",
                "TAC": "7",
                "RSPR": "-87",
                "time": 1649151542484,
                "registered?": "1"
            }
        ],
        "m101": [
            {
                "technology": "LTE",
                "cell_id": "131078",
                "MCC": "505",
                "MNC": "01",
                "PCI": "6",
                "TAC": "7",
                "RSPR": "-87",
                "time": 1649151543505,
                "registered?": "1"
            }
        ],
        "m102": [
            {
                "technology": "LTE",
                "cell_id": "131078",
                "MCC": "505",
                "MNC": "01",
                "PCI": "6",
                "TAC": "7",
                "RSPR": "-87",
                "time": 1649151544483,
                "registered?": "1"
            }
        ],
        "m103": [
            {
                "technology": "LTE",
                "cell_id": "131078",
                "MCC": "505",
                "MNC": "01",
                "PCI": "6",
                "TAC": "7",
                "RSPR": "-87",
                "time": 1649151545506,
                "registered?": "1"
            }
        ],
        "m104": [
            {
                "technology": "LTE",
                "cell_id": "131078",
                "MCC": "505",
                "MNC": "01",
                "PCI": "6",
                "TAC": "7",
                "RSPR": "-87",
                "time": 1649151546484,
                "registered?": "1"
            }
        ],
        "m105": [
            {
                "technology": "LTE",
                "cell_id": "131078",
                "MCC": "505",
                "MNC": "01",
                "PCI": "6",
                "TAC": "7",
                "RSPR": "-86",
                "time": 1649151547507,
                "registered?": "1"
            }
        ],
        "m106": [
            {
                "technology": "LTE",
                "cell_id": "131078",
                "MCC": "505",
                "MNC": "01",
                "PCI": "6",
                "TAC": "7",
                "RSPR": "-86",
                "time": 1649151548485,
                "registered?": "1"
            }
        ],
        "m107": [
            {
                "technology": "LTE",
                "cell_id": "131078",
                "MCC": "505",
                "MNC": "01",
                "PCI": "6",
                "TAC": "7",
                "RSPR": "-86",
                "time": 1649151549480,
                "registered?": "1"
            }
        ],
        "m108": [
            {
                "technology": "LTE",
                "cell_id": "131078",
                "MCC": "505",
                "MNC": "01",
                "PCI": "6",
                "TAC": "7",
                "RSPR": "-87",
                "time": 1649151550507,
                "registered?": "1"
            }
        ],
        "m109": [
            {
                "technology": "LTE",
                "cell_id": "131078",
                "MCC": "505",
                "MNC": "01",
                "PCI": "6",
                "TAC": "7",
                "RSPR": "-87",
                "time": 1649151551484,
                "registered?": "1"
            }
        ],
        "m110": [
            {
                "technology": "LTE",
                "cell_id": "131078",
                "MCC": "505",
                "MNC": "01",
                "PCI": "6",
                "TAC": "7",
                "RSPR": "-87",
                "time": 1649151552483,
                "registered?": "1"
            }
        ],
        "m111": [
            {
                "technology": "LTE",
                "cell_id": "131078",
                "MCC": "505",
                "MNC": "01",
                "PCI": "6",
                "TAC": "7",
                "RSPR": "-87",
                "time": 1649151553503,
                "registered?": "1"
            }
        ],
        "m112": [
            {
                "technology": "LTE",
                "cell_id": "131078",
                "MCC": "505",
                "MNC": "01",
                "PCI": "6",
                "TAC": "7",
                "RSPR": "-87",
                "time": 1649151554484,
                "registered?": "1"
            }
        ],
        "m113": [
            {
                "technology": "LTE",
                "cell_id": "131078",
                "MCC": "505",
                "MNC": "01",
                "PCI": "6",
                "TAC": "7",
                "RSPR": "-89",
                "time": 1649151555507,
                "registered?": "1"
            }
        ],
        "m114": [
            {
                "technology": "LTE",
                "cell_id": "131078",
                "MCC": "505",
                "MNC": "01",
                "PCI": "6",
                "TAC": "7",
                "RSPR": "-89",
                "time": 1649151556483,
                "registered?": "1"
            }
        ],
        "m115": [
            {
                "technology": "LTE",
                "cell_id": "131078",
                "MCC": "505",
                "MNC": "01",
                "PCI": "6",
                "TAC": "7",
                "RSPR": "-89",
                "time": 1649151557483,
                "registered?": "1"
            }
        ],
        "m116": [
            {
                "technology": "LTE",
                "cell_id": "131078",
                "MCC": "505",
                "MNC": "01",
                "PCI": "6",
                "TAC": "7",
                "RSPR": "-90",
                "time": 1649151558504,
                "registered?": "1"
            }
        ],
        "m117": [
            {
                "technology": "LTE",
                "cell_id": "131078",
                "MCC": "505",
                "MNC": "01",
                "PCI": "6",
                "TAC": "7",
                "RSPR": "-90",
                "time": 1649151559484,
                "registered?": "1"
            }
        ],
        "m118": [
            {
                "technology": "LTE",
                "cell_id": "131078",
                "MCC": "505",
                "MNC": "01",
                "PCI": "6",
                "TAC": "7",
                "RSPR": "-84",
                "time": 1649151560504,
                "registered?": "1"
            }
        ],
        "m119": [
            {
                "technology": "LTE",
                "cell_id": "131078",
                "MCC": "505",
                "MNC": "01",
                "PCI": "6",
                "TAC": "7",
                "RSPR": "-84",
                "time": 1649151561483,
                "registered?": "1"
            }
        ],
        "m120": [
            {
                "technology": "LTE",
                "cell_id": "131078",
                "MCC": "505",
                "MNC": "01",
                "PCI": "6",
                "TAC": "7",
                "RSPR": "-84",
                "time": 1649151562484,
                "registered?": "1"
            }
        ],
        "m121": [
            {
                "technology": "LTE",
                "cell_id": "131078",
                "MCC": "505",
                "MNC": "01",
                "PCI": "6",
                "TAC": "7",
                "RSPR": "-85",
                "time": 1649151563494,
                "registered?": "1"
            }
        ],
        "m122": [
            {
                "technology": "LTE",
                "cell_id": "131078",
                "MCC": "505",
                "MNC": "01",
                "PCI": "6",
                "TAC": "7",
                "RSPR": "-85",
                "time": 1649151564481,
                "registered?": "1"
            }
        ],
        "m123": [
            {
                "technology": "LTE",
                "cell_id": "131078",
                "MCC": "505",
                "MNC": "01",
                "PCI": "6",
                "TAC": "7",
                "RSPR": "-85",
                "time": 1649151565474,
                "registered?": "1"
            }
        ]
    }
}