{
  "project_info": {
    "project_number": "559294285940",
    "project_id": "cellinfo-414b7",
    "storage_bucket": "cellinfo-414b7.appspot.com"
  },
  "client": [
    {
      "client_info": {
        "mobilesdk_app_id": "1:559294285940:android:9a029f45fcb16f27586921",
        "android_client_info": {
          "package_name": "com.example.cellinfo"
        }
      },
      "oauth_client": [
        {
          "client_id": "559294285940-2jlb3mogqkgdinr1e7kf8q4opca0m3bt.apps.googleusercontent.com",
          "client_type": 1,
          "android_info": {
            "package_name": "com.example.cellinfo",
            "certificate_hash": "a168a18e1ec91ec3f12f5a2cc9373e58449e342c"
          }
        },
        {
          "client_id": "559294285940-dt33tbt1hif2rv8nck98l481om5f66qp.apps.googleusercontent.com",
          "client_type": 3
        }
      ],
      "api_key": [
        {
          "current_key": "AIzaSyD0jPsV-BoyFNP6zh2S1p5DD1YnBAyMKxA"
        }
      ],
      "services": {
        "appinvite_service": {
          "other_platform_oauth_client": [
            {
              "client_id": "559294285940-dt33tbt1hif2rv8nck98l481om5f66qp.apps.googleusercontent.com",
              "client_type": 3
            }
          ]
        }
      }
    }
  ],
  "configuration_version": "1"
}