{
    "measurements": {
        "m0": [
            {
                "technology": "LTE",
                "cell_id": "131078",
                "MCC": "505",
                "MNC": "01",
                "PCI": "6",
                "TAC": "7",
                "RSPR": "-100",
                "time": 1649151954372,
                "registered?": "1"
            }
        ],
        "m1": [
            {
                "technology": "LTE",
                "cell_id": "131078",
                "MCC": "505",
                "MNC": "01",
                "PCI": "6",
                "TAC": "7",
                "RSPR": "-100",
                "time": 1649151955379,
                "registered?": "1"
            }
        ],
        "m2": [
            {
                "technology": "LTE",
                "cell_id": "131078",
                "MCC": "505",
                "MNC": "01",
                "PCI": "6",
                "TAC": "7",
                "RSPR": "-100",
                "time": 1649151956400,
                "registered?": "1"
            }
        ],
        "m3": [
            {
                "technology": "LTE",
                "cell_id": "131078",
                "MCC": "505",
                "MNC": "01",
                "PCI": "6",
                "TAC": "7",
                "RSPR": "-100",
                "time": 1649151957376,
                "registered?": "1"
            }
        ],
        "m4": [
            {
                "technology": "LTE",
                "cell_id": "131078",
                "MCC": "505",
                "MNC": "01",
                "PCI": "6",
                "TAC": "7",
                "RSPR": "-100",
                "time": 1649151958377,
                "registered?": "1"
            }
        ],
        "m5": [
            {
                "technology": "LTE",
                "cell_id": "131078",
                "MCC": "505",
                "MNC": "01",
                "PCI": "6",
                "TAC": "7",
                "RSPR": "-102",
                "time": 1649151959382,
                "registered?": "1"
            }
        ],
        "m6": [
            {
                "technology": "LTE",
                "cell_id": "131078",
                "MCC": "505",
                "MNC": "01",
                "PCI": "6",
                "TAC": "7",
                "RSPR": "-102",
                "time": 1649151960375,
                "registered?": "1"
            }
        ],
        "m7": [
            {
                "technology": "LTE",
                "cell_id": "131078",
                "MCC": "505",
                "MNC": "01",
                "PCI": "6",
                "TAC": "7",
                "RSPR": "-102",
                "time": 1649151961365,
                "registered?": "1"
            }
        ],
        "m8": [
            {
                "technology": "LTE",
                "cell_id": "131078",
                "MCC": "505",
                "MNC": "01",
                "PCI": "6",
                "TAC": "7",
                "RSPR": "-103",
                "time": 1649151962397,
                "registered?": "1"
            }
        ],
        "m9": [
            {
                "technology": "LTE",
                "cell_id": "131078",
                "MCC": "505",
                "MNC": "01",
                "PCI": "6",
                "TAC": "7",
                "RSPR": "-103",
                "time": 1649151963377,
                "registered?": "1"
            }
        ],
        "m10": [
            {
                "technology": "LTE",
                "cell_id": "131078",
                "MCC": "505",
                "MNC": "01",
                "PCI": "6",
                "TAC": "7",
                "RSPR": "-103",
                "time": 1649151964400,
                "registered?": "1"
            }
        ],
        "m11": [
            {
                "technology": "LTE",
                "cell_id": "131078",
                "MCC": "505",
                "MNC": "01",
                "PCI": "6",
                "TAC": "7",
                "RSPR": "-103",
                "time": 1649151965377,
                "registered?": "1"
            }
        ],
        "m12": [
            {
                "technology": "LTE",
                "cell_id": "131078",
                "MCC": "505",
                "MNC": "01",
                "PCI": "6",
                "TAC": "7",
                "RSPR": "-103",
                "time": 1649151966370,
                "registered?": "1"
            }
        ],
        "m13": [
            {
                "technology": "LTE",
                "cell_id": "131078",
                "MCC": "505",
                "MNC": "01",
                "PCI": "6",
                "TAC": "7",
                "RSPR": "-106",
                "time": 1649151967369,
                "registered?": "1"
            }
        ],
        "m14": [
            {
                "technology": "LTE",
                "cell_id": "131078",
                "MCC": "505",
                "MNC": "01",
                "PCI": "6",
                "TAC": "7",
                "RSPR": "-106",
                "time": 1649151968381,
                "registered?": "1"
            }
        ],
        "m15": [
            {
                "technology": "LTE",
                "cell_id": "131078",
                "MCC": "505",
                "MNC": "01",
                "PCI": "6",
                "TAC": "7",
                "RSPR": "-96",
                "time": 1649151969400,
                "registered?": "1"
            }
        ],
        "m16": [
            {
                "technology": "LTE",
                "cell_id": "131078",
                "MCC": "505",
                "MNC": "01",
                "PCI": "6",
                "TAC": "7",
                "RSPR": "-96",
                "time": 1649151970377,
                "registered?": "1"
            }
        ],
        "m17": [
            {
                "technology": "LTE",
                "cell_id": "131078",
                "MCC": "505",
                "MNC": "01",
                "PCI": "6",
                "TAC": "7",
                "RSPR": "-101",
                "time": 1649151971401,
                "registered?": "1"
            }
        ],
        "m18": [
            {
                "technology": "LTE",
                "cell_id": "131078",
                "MCC": "505",
                "MNC": "01",
                "PCI": "6",
                "TAC": "7",
                "RSPR": "-101",
                "time": 1649151972369,
                "registered?": "1"
            }
        ],
        "m19": [
            {
                "technology": "LTE",
                "cell_id": "131078",
                "MCC": "505",
                "MNC": "01",
                "PCI": "6",
                "TAC": "7",
                "RSPR": "-101",
                "time": 1649151973365,
                "registered?": "1"
            }
        ],
        "m20": [
            {
                "technology": "LTE",
                "cell_id": "131078",
                "MCC": "505",
                "MNC": "01",
                "PCI": "6",
                "TAC": "7",
                "RSPR": "-102",
                "time": 1649151974399,
                "registered?": "1"
            }
        ],
        "m21": [
            {
                "technology": "LTE",
                "cell_id": "131078",
                "MCC": "505",
                "MNC": "01",
                "PCI": "6",
                "TAC": "7",
                "RSPR": "-102",
                "time": 1649151975376,
                "registered?": "1"
            }
        ],
        "m22": [
            {
                "technology": "LTE",
                "cell_id": "131078",
                "MCC": "505",
                "MNC": "01",
                "PCI": "6",
                "TAC": "7",
                "RSPR": "-102",
                "time": 1649151976400,
                "registered?": "1"
            }
        ],
        "m23": [
            {
                "technology": "LTE",
                "cell_id": "131078",
                "MCC": "505",
                "MNC": "01",
                "PCI": "6",
                "TAC": "7",
                "RSPR": "-102",
                "time": 1649151977378,
                "registered?": "1"
            }
        ],
        "m24": [
            {
                "technology": "LTE",
                "cell_id": "131078",
                "MCC": "505",
                "MNC": "01",
                "PCI": "6",
                "TAC": "7",
                "RSPR": "-102",
                "time": 1649151978364,
                "registered?": "1"
            }
        ],
        "m25": [
            {
                "technology": "LTE",
                "cell_id": "131078",
                "MCC": "505",
                "MNC": "01",
                "PCI": "6",
                "TAC": "7",
                "RSPR": "-102",
                "time": 1649151979399,
                "registered?": "1"
            }
        ],
        "m26": [
            {
                "technology": "LTE",
                "cell_id": "131078",
                "MCC": "505",
                "MNC": "01",
                "PCI": "6",
                "TAC": "7",
                "RSPR": "-102",
                "time": 1649151980378,
                "registered?": "1"
            }
        ],
        "m27": [
            {
                "technology": "LTE",
                "cell_id": "131078",
                "MCC": "505",
                "MNC": "01",
                "PCI": "6",
                "TAC": "7",
                "RSPR": "-102",
                "time": 1649151981375,
                "registered?": "1"
            }
        ],
        "m28": [
            {
                "technology": "LTE",
                "cell_id": "131078",
                "MCC": "505",
                "MNC": "01",
                "PCI": "6",
                "TAC": "7",
                "RSPR": "-102",
                "time": 1649151982399,
                "registered?": "1"
            }
        ],
        "m29": [
            {
                "technology": "LTE",
                "cell_id": "131078",
                "MCC": "505",
                "MNC": "01",
                "PCI": "6",
                "TAC": "7",
                "RSPR": "-102",
                "time": 1649151983377,
                "registered?": "1"
            }
        ],
        "m30": [
            {
                "technology": "LTE",
                "cell_id": "131078",
                "MCC": "505",
                "MNC": "01",
                "PCI": "6",
                "TAC": "7",
                "RSPR": "-102",
                "time": 1649151984365,
                "registered?": "1"
            }
        ],
        "m31": [
            {
                "technology": "LTE",
                "cell_id": "131078",
                "MCC": "505",
                "MNC": "01",
                "PCI": "6",
                "TAC": "7",
                "RSPR": "-100",
                "time": 1649151985401,
                "registered?": "1"
            }
        ],
        "m32": [
            {
                "technology": "LTE",
                "cell_id": "131078",
                "MCC": "505",
                "MNC": "01",
                "PCI": "6",
                "TAC": "7",
                "RSPR": "-100",
                "time": 1649151986374,
                "registered?": "1"
            }
        ],
        "m33": [
            {
                "technology": "LTE",
                "cell_id": "131078",
                "MCC": "505",
                "MNC": "01",
                "PCI": "6",
                "TAC": "7",
                "RSPR": "-100",
                "time": 1649151987376,
                "registered?": "1"
            }
        ],
        "m34": [
            {
                "technology": "LTE",
                "cell_id": "131078",
                "MCC": "505",
                "MNC": "01",
                "PCI": "6",
                "TAC": "7",
                "RSPR": "-97",
                "time": 1649151988406,
                "registered?": "1"
            }
        ],
        "m35": [
            {
                "technology": "LTE",
                "cell_id": "131078",
                "MCC": "505",
                "MNC": "01",
                "PCI": "6",
                "TAC": "7",
                "RSPR": "-97",
                "time": 1649151989370,
                "registered?": "1"
            }
        ],
        "m36": [
            {
                "technology": "LTE",
                "cell_id": "131078",
                "MCC": "505",
                "MNC": "01",
                "PCI": "6",
                "TAC": "7",
                "RSPR": "-97",
                "time": 1649151990364,
                "registered?": "1"
            }
        ],
        "m37": [
            {
                "technology": "LTE",
                "cell_id": "131078",
                "MCC": "505",
                "MNC": "01",
                "PCI": "6",
                "TAC": "7",
                "RSPR": "-101",
                "time": 1649151991403,
                "registered?": "1"
            }
        ],
        "m38": [
            {
                "technology": "LTE",
                "cell_id": "131078",
                "MCC": "505",
                "MNC": "01",
                "PCI": "6",
                "TAC": "7",
                "RSPR": "-101",
                "time": 1649151992377,
                "registered?": "1"
            }
        ],
        "m39": [
            {
                "technology": "LTE",
                "cell_id": "131078",
                "MCC": "505",
                "MNC": "01",
                "PCI": "6",
                "TAC": "7",
                "RSPR": "-101",
                "time": 1649151993376,
                "registered?": "1"
            }
        ],
        "m40": [
            {
                "technology": "LTE",
                "cell_id": "131078",
                "MCC": "505",
                "MNC": "01",
                "PCI": "6",
                "TAC": "7",
                "RSPR": "-100",
                "time": 1649151994399,
                "registered?": "1"
            }
        ],
        "m41": [
            {
                "technology": "LTE",
                "cell_id": "131078",
                "MCC": "505",
                "MNC": "01",
                "PCI": "6",
                "TAC": "7",
                "RSPR": "-100",
                "time": 1649151995372,
                "registered?": "1"
            }
        ],
        "m42": [
            {
                "technology": "LTE",
                "cell_id": "131078",
                "MCC": "505",
                "MNC": "01",
                "PCI": "6",
                "TAC": "7",
                "RSPR": "-100",
                "time": 1649151996366,
                "registered?": "1"
            }
        ],
        "m43": [
            {
                "technology": "LTE",
                "cell_id": "131078",
                "MCC": "505",
                "MNC": "01",
                "PCI": "6",
                "TAC": "7",
                "RSPR": "-97",
                "time": 1649151997401,
                "registered?": "1"
            }
        ],
        "m44": [
            {
                "technology": "LTE",
                "cell_id": "131078",
                "MCC": "505",
                "MNC": "01",
                "PCI": "6",
                "TAC": "7",
                "RSPR": "-97",
                "time": 1649151998378,
                "registered?": "1"
            }
        ],
        "m45": [
            {
                "technology": "LTE",
                "cell_id": "131078",
                "MCC": "505",
                "MNC": "01",
                "PCI": "6",
                "TAC": "7",
                "RSPR": "-97",
                "time": 1649151999376,
                "registered?": "1"
            }
        ],
        "m46": [
            {
                "technology": "LTE",
                "cell_id": "131078",
                "MCC": "505",
                "MNC": "01",
                "PCI": "6",
                "TAC": "7",
                "RSPR": "-97",
                "time": 1649152000403,
                "registered?": "1"
            }
        ],
        "m47": [
            {
                "technology": "LTE",
                "cell_id": "131078",
                "MCC": "505",
                "MNC": "01",
                "PCI": "6",
                "TAC": "7",
                "RSPR": "-97",
                "time": 1649152001372,
                "registered?": "1"
            }
        ],
        "m48": [
            {
                "technology": "LTE",
                "cell_id": "131078",
                "MCC": "505",
                "MNC": "01",
                "PCI": "6",
                "TAC": "7",
                "RSPR": "-97",
                "time": 1649152002366,
                "registered?": "1"
            }
        ],
        "m49": [
            {
                "technology": "LTE",
                "cell_id": "131078",
                "MCC": "505",
                "MNC": "01",
                "PCI": "6",
                "TAC": "7",
                "RSPR": "-97",
                "time": 1649152003394,
                "registered?": "1"
            }
        ],
        "m50": [
            {
                "technology": "LTE",
                "cell_id": "131078",
                "MCC": "505",
                "MNC": "01",
                "PCI": "6",
                "TAC": "7",
                "RSPR": "-97",
                "time": 1649152004378,
                "registered?": "1"
            }
        ],
        "m51": [
            {
                "technology": "LTE",
                "cell_id": "131078",
                "MCC": "505",
                "MNC": "01",
                "PCI": "6",
                "TAC": "7",
                "RSPR": "-97",
                "time": 1649152005405,
                "registered?": "1"
            }
        ],
        "m52": [
            {
                "technology": "LTE",
                "cell_id": "131078",
                "MCC": "505",
                "MNC": "01",
                "PCI": "6",
                "TAC": "7",
                "RSPR": "-97",
                "time": 1649152006377,
                "registered?": "1"
            }
        ],
        "m53": [
            {
                "technology": "LTE",
                "cell_id": "131078",
                "MCC": "505",
                "MNC": "01",
                "PCI": "6",
                "TAC": "7",
                "RSPR": "-97",
                "time": 1649152007365,
                "registered?": "1"
            }
        ],
        "m54": [
            {
                "technology": "LTE",
                "cell_id": "131078",
                "MCC": "505",
                "MNC": "01",
                "PCI": "6",
                "TAC": "7",
                "RSPR": "-97",
                "time": 1649152008401,
                "registered?": "1"
            }
        ],
        "m55": [
            {
                "technology": "LTE",
                "cell_id": "131078",
                "MCC": "505",
                "MNC": "01",
                "PCI": "6",
                "TAC": "7",
                "RSPR": "-97",
                "time": 1649152009376,
                "registered?": "1"
            }
        ],
        "m56": [
            {
                "technology": "LTE",
                "cell_id": "131078",
                "MCC": "505",
                "MNC": "01",
                "PCI": "6",
                "TAC": "7",
                "RSPR": "-97",
                "time": 1649152010399,
                "registered?": "1"
            }
        ],
        "m57": [
            {
                "technology": "LTE",
                "cell_id": "131078",
                "MCC": "505",
                "MNC": "01",
                "PCI": "6",
                "TAC": "7",
                "RSPR": "-97",
                "time": 1649152011378,
                "registered?": "1"
            }
        ],
        "m58": [
            {
                "technology": "LTE",
                "cell_id": "131078",
                "MCC": "505",
                "MNC": "01",
                "PCI": "6",
                "TAC": "7",
                "RSPR": "-96",
                "time": 1649152012399,
                "registered?": "1"
            }
        ],
        "m59": [
            {
                "technology": "LTE",
                "cell_id": "131078",
                "MCC": "505",
                "MNC": "01",
                "PCI": "6",
                "TAC": "7",
                "RSPR": "-96",
                "time": 1649152013364,
                "registered?": "1"
            }
        ],
        "m60": [
            {
                "technology": "LTE",
                "cell_id": "131078",
                "MCC": "505",
                "MNC": "01",
                "PCI": "6",
                "TAC": "7",
                "RSPR": "-96",
                "time": 1649152014377,
                "registered?": "1"
            }
        ],
        "m61": [
            {
                "technology": "LTE",
                "cell_id": "131078",
                "MCC": "505",
                "MNC": "01",
                "PCI": "6",
                "TAC": "7",
                "RSPR": "-96",
                "time": 1649152015401,
                "registered?": "1"
            }
        ],
        "m62": [
            {
                "technology": "LTE",
                "cell_id": "131078",
                "MCC": "505",
                "MNC": "01",
                "PCI": "6",
                "TAC": "7",
                "RSPR": "-96",
                "time": 1649152016378,
                "registered?": "1"
            }
        ],
        "m63": [
            {
                "technology": "LTE",
                "cell_id": "131078",
                "MCC": "505",
                "MNC": "01",
                "PCI": "6",
                "TAC": "7",
                "RSPR": "-96",
                "time": 1649152017377,
                "registered?": "1"
            }
        ],
        "m64": [
            {
                "technology": "LTE",
                "cell_id": "131078",
                "MCC": "505",
                "MNC": "01",
                "PCI": "6",
                "TAC": "7",
                "RSPR": "-99",
                "time": 1649152018389,
                "registered?": "1"
            }
        ],
        "m65": [
            {
                "technology": "LTE",
                "cell_id": "131078",
                "MCC": "505",
                "MNC": "01",
                "PCI": "6",
                "TAC": "7",
                "RSPR": "-99",
                "time": 1649152019364,
                "registered?": "1"
            }
        ],
        "m66": [
            {
                "technology": "LTE",
                "cell_id": "131078",
                "MCC": "505",
                "MNC": "01",
                "PCI": "6",
                "TAC": "7",
                "RSPR": "-100",
                "time": 1649152020402,
                "registered?": "1"
            }
        ],
        "m67": [
            {
                "technology": "LTE",
                "cell_id": "131078",
                "MCC": "505",
                "MNC": "01",
                "PCI": "6",
                "TAC": "7",
                "RSPR": "-100",
                "time": 1649152021378,
                "registered?": "1"
            }
        ],
        "m68": [
            {
                "technology": "LTE",
                "cell_id": "131078",
                "MCC": "505",
                "MNC": "01",
                "PCI": "6",
                "TAC": "7",
                "RSPR": "-103",
                "time": 1649152022408,
                "registered?": "1"
            }
        ],
        "m69": [
            {
                "technology": "LTE",
                "cell_id": "131078",
                "MCC": "505",
                "MNC": "01",
                "PCI": "6",
                "TAC": "7",
                "RSPR": "-103",
                "time": 1649152023378,
                "registered?": "1"
            }
        ],
        "m70": [
            {
                "technology": "LTE",
                "cell_id": "131078",
                "MCC": "505",
                "MNC": "01",
                "PCI": "6",
                "TAC": "7",
                "RSPR": "-103",
                "time": 1649152024371,
                "registered?": "1"
            }
        ],
        "m71": [
            {
                "technology": "LTE",
                "cell_id": "131078",
                "MCC": "505",
                "MNC": "01",
                "PCI": "6",
                "TAC": "7",
                "RSPR": "-100",
                "time": 1649152025371,
                "registered?": "1"
            }
        ],
        "m72": [
            {
                "technology": "LTE",
                "cell_id": "131078",
                "MCC": "505",
                "MNC": "01",
                "PCI": "6",
                "TAC": "7",
                "RSPR": "-100",
                "time": 1649152026375,
                "registered?": "1"
            }
        ],
        "m73": [
            {
                "technology": "LTE",
                "cell_id": "131078",
                "MCC": "505",
                "MNC": "01",
                "PCI": "6",
                "TAC": "7",
                "RSPR": "-107",
                "time": 1649152027401,
                "registered?": "1"
            }
        ],
        "m74": [
            {
                "technology": "LTE",
                "cell_id": "131078",
                "MCC": "505",
                "MNC": "01",
                "PCI": "6",
                "TAC": "7",
                "RSPR": "-107",
                "time": 1649152028388,
                "registered?": "1"
            }
        ],
        "m75": [
            {
                "technology": "LTE",
                "cell_id": "131078",
                "MCC": "505",
                "MNC": "01",
                "PCI": "6",
                "TAC": "7",
                "RSPR": "-104",
                "time": 1649152029414,
                "registered?": "1"
            }
        ],
        "m76": [
            {
                "technology": "LTE",
                "cell_id": "131078",
                "MCC": "505",
                "MNC": "01",
                "PCI": "6",
                "TAC": "7",
                "RSPR": "-104",
                "time": 1649152030364,
                "registered?": "1"
            }
        ],
        "m77": [
            {
                "technology": "LTE",
                "cell_id": "131078",
                "MCC": "505",
                "MNC": "01",
                "PCI": "6",
                "TAC": "7",
                "RSPR": "-104",
                "time": 1649152031376,
                "registered?": "1"
            }
        ],
        "m78": [
            {
                "technology": "LTE",
                "cell_id": "131078",
                "MCC": "505",
                "MNC": "01",
                "PCI": "6",
                "TAC": "7",
                "RSPR": "-102",
                "time": 1649152032392,
                "registered?": "1"
            }
        ],
        "m79": [
            {
                "technology": "LTE",
                "cell_id": "131078",
                "MCC": "505",
                "MNC": "01",
                "PCI": "6",
                "TAC": "7",
                "RSPR": "-102",
                "time": 1649152033373,
                "registered?": "1"
            }
        ],
        "m80": [
            {
                "technology": "LTE",
                "cell_id": "131078",
                "MCC": "505",
                "MNC": "01",
                "PCI": "6",
                "TAC": "7",
                "RSPR": "-99",
                "time": 1649152034394,
                "registered?": "1"
            }
        ],
        "m81": [
            {
                "technology": "LTE",
                "cell_id": "131078",
                "MCC": "505",
                "MNC": "01",
                "PCI": "6",
                "TAC": "7",
                "RSPR": "-99",
                "time": 1649152035373,
                "registered?": "1"
            }
        ],
        "m82": [
            {
                "technology": "LTE",
                "cell_id": "131078",
                "MCC": "505",
                "MNC": "01",
                "PCI": "6",
                "TAC": "7",
                "RSPR": "-99",
                "time": 1649152036364,
                "registered?": "1"
            }
        ],
        "m83": [
            {
                "technology": "LTE",
                "cell_id": "131078",
                "MCC": "505",
                "MNC": "01",
                "PCI": "6",
                "TAC": "7",
                "RSPR": "-104",
                "time": 1649152037401,
                "registered?": "1"
            }
        ],
        "m84": [
            {
                "technology": "LTE",
                "cell_id": "131078",
                "MCC": "505",
                "MNC": "01",
                "PCI": "6",
                "TAC": "7",
                "RSPR": "-104",
                "time": 1649152038374,
                "registered?": "1"
            }
        ],
        "m85": [
            {
                "technology": "LTE",
                "cell_id": "131078",
                "MCC": "505",
                "MNC": "01",
                "PCI": "6",
                "TAC": "7",
                "RSPR": "-104",
                "time": 1649152039373,
                "registered?": "1"
            }
        ],
        "m86": [
            {
                "technology": "LTE",
                "cell_id": "131078",
                "MCC": "505",
                "MNC": "01",
                "PCI": "6",
                "TAC": "7",
                "RSPR": "-100",
                "time": 1649152040393,
                "registered?": "1"
            }
        ],
        "m87": [
            {
                "technology": "LTE",
                "cell_id": "131078",
                "MCC": "505",
                "MNC": "01",
                "PCI": "6",
                "TAC": "7",
                "RSPR": "-100",
                "time": 1649152041373,
                "registered?": "1"
            }
        ],
        "m88": [
            {
                "technology": "LTE",
                "cell_id": "131078",
                "MCC": "505",
                "MNC": "01",
                "PCI": "6",
                "TAC": "7",
                "RSPR": "-100",
                "time": 1649152042365,
                "registered?": "1"
            }
        ],
        "m89": [
            {
                "technology": "LTE",
                "cell_id": "131078",
                "MCC": "505",
                "MNC": "01",
                "PCI": "6",
                "TAC": "7",
                "RSPR": "-99",
                "time": 1649152043398,
                "registered?": "1"
            }
        ],
        "m90": [
            {
                "technology": "LTE",
                "cell_id": "131078",
                "MCC": "505",
                "MNC": "01",
                "PCI": "6",
                "TAC": "7",
                "RSPR": "-99",
                "time": 1649152044374,
                "registered?": "1"
            }
        ],
        "m91": [
            {
                "technology": "LTE",
                "cell_id": "131078",
                "MCC": "505",
                "MNC": "01",
                "PCI": "6",
                "TAC": "7",
                "RSPR": "-97",
                "time": 1649152045398,
                "registered?": "1"
            }
        ],
        "m92": [
            {
                "technology": "LTE",
                "cell_id": "131078",
                "MCC": "505",
                "MNC": "01",
                "PCI": "6",
                "TAC": "7",
                "RSPR": "-97",
                "time": 1649152046375,
                "registered?": "1"
            }
        ],
        "m93": [
            {
                "technology": "LTE",
                "cell_id": "131078",
                "MCC": "505",
                "MNC": "01",
                "PCI": "6",
                "TAC": "7",
                "RSPR": "-97",
                "time": 1649152047364,
                "registered?": "1"
            }
        ],
        "m94": [
            {
                "technology": "LTE",
                "cell_id": "131078",
                "MCC": "505",
                "MNC": "01",
                "PCI": "6",
                "TAC": "7",
                "RSPR": "-97",
                "time": 1649152048397,
                "registered?": "1"
            }
        ],
        "m95": [
            {
                "technology": "LTE",
                "cell_id": "131078",
                "MCC": "505",
                "MNC": "01",
                "PCI": "6",
                "TAC": "7",
                "RSPR": "-97",
                "time": 1649152049375,
                "registered?": "1"
            }
        ],
        "m96": [
            {
                "technology": "LTE",
                "cell_id": "131078",
                "MCC": "505",
                "MNC": "01",
                "PCI": "6",
                "TAC": "7",
                "RSPR": "-98",
                "time": 1649152050403,
                "registered?": "1"
            }
        ],
        "m97": [
            {
                "technology": "LTE",
                "cell_id": "131078",
                "MCC": "505",
                "MNC": "01",
                "PCI": "6",
                "TAC": "7",
                "RSPR": "-98",
                "time": 1649152051375,
                "registered?": "1"
            }
        ],
        "m98": [
            {
                "technology": "LTE",
                "cell_id": "131078",
                "MCC": "505",
                "MNC": "01",
                "PCI": "6",
                "TAC": "7",
                "RSPR": "-98",
                "time": 1649152052369,
                "registered?": "1"
            }
        ],
        "m99": [
            {
                "technology": "LTE",
                "cell_id": "131078",
                "MCC": "505",
                "MNC": "01",
                "PCI": "6",
                "TAC": "7",
                "RSPR": "-99",
                "time": 1649152053369,
                "registered?": "1"
            }
        ],
        "m100": [
            {
                "technology": "LTE",
                "cell_id": "131078",
                "MCC": "505",
                "MNC": "01",
                "PCI": "6",
                "TAC": "7",
                "RSPR": "-99",
                "time": 1649152054375,
                "registered?": "1"
            }
        ],
        "m101": [
            {
                "technology": "LTE",
                "cell_id": "131078",
                "MCC": "505",
                "MNC": "01",
                "PCI": "6",
                "TAC": "7",
                "RSPR": "-99",
                "time": 1649152055400,
                "registered?": "1"
            }
        ],
        "m102": [
            {
                "technology": "LTE",
                "cell_id": "131078",
                "MCC": "505",
                "MNC": "01",
                "PCI": "6",
                "TAC": "7",
                "RSPR": "-99",
                "time": 1649152056375,
                "registered?": "1"
            }
        ],
        "m103": [
            {
                "technology": "LTE",
                "cell_id": "131078",
                "MCC": "505",
                "MNC": "01",
                "PCI": "6",
                "TAC": "7",
                "RSPR": "-100",
                "time": 1649152057398,
                "registered?": "1"
            }
        ],
        "m104": [
            {
                "technology": "LTE",
                "cell_id": "131078",
                "MCC": "505",
                "MNC": "01",
                "PCI": "6",
                "TAC": "7",
                "RSPR": "-100",
                "time": 1649152058372,
                "registered?": "1"
            }
        ],
        "m105": [
            {
                "technology": "LTE",
                "cell_id": "131078",
                "MCC": "505",
                "MNC": "01",
                "PCI": "6",
                "TAC": "7",
                "RSPR": "-100",
                "time": 1649152059365,
                "registered?": "1"
            }
        ],
        "m106": [
            {
                "technology": "LTE",
                "cell_id": "131078",
                "MCC": "505",
                "MNC": "01",
                "PCI": "6",
                "TAC": "7",
                "RSPR": "-97",
                "time": 1649152060398,
                "registered?": "1"
            }
        ],
        "m107": [
            {
                "technology": "LTE",
                "cell_id": "131078",
                "MCC": "505",
                "MNC": "01",
                "PCI": "6",
                "TAC": "7",
                "RSPR": "-97",
                "time": 1649152061375,
                "registered?": "1"
            }
        ],
        "m108": [
            {
                "technology": "LTE",
                "cell_id": "131078",
                "MCC": "505",
                "MNC": "01",
                "PCI": "6",
                "TAC": "7",
                "RSPR": "-97",
                "time": 1649152062374,
                "registered?": "1"
            }
        ],
        "m109": [
            {
                "technology": "LTE",
                "cell_id": "131078",
                "MCC": "505",
                "MNC": "01",
                "PCI": "6",
                "TAC": "7",
                "RSPR": "-103",
                "time": 1649152063396,
                "registered?": "1"
            }
        ],
        "m110": [
            {
                "technology": "LTE",
                "cell_id": "131078",
                "MCC": "505",
                "MNC": "01",
                "PCI": "6",
                "TAC": "7",
                "RSPR": "-103",
                "time": 1649152064373,
                "registered?": "1"
            }
        ],
        "m111": [
            {
                "technology": "LTE",
                "cell_id": "131078",
                "MCC": "505",
                "MNC": "01",
                "PCI": "6",
                "TAC": "7",
                "RSPR": "-103",
                "time": 1649152065366,
                "registered?": "1"
            }
        ],
        "m112": [
            {
                "technology": "LTE",
                "cell_id": "131078",
                "MCC": "505",
                "MNC": "01",
                "PCI": "6",
                "TAC": "7",
                "RSPR": "-104",
                "time": 1649152066392,
                "registered?": "1"
            }
        ],
        "m113": [
            {
                "technology": "LTE",
                "cell_id": "131078",
                "MCC": "505",
                "MNC": "01",
                "PCI": "6",
                "TAC": "7",
                "RSPR": "-104",
                "time": 1649152067370,
                "registered?": "1"
            }
        ],
        "m114": [
            {
                "technology": "LTE",
                "cell_id": "131078",
                "MCC": "505",
                "MNC": "01",
                "PCI": "6",
                "TAC": "7",
                "RSPR": "-107",
                "time": 1649152068399,
                "registered?": "1"
            }
        ],
        "m115": [
            {
                "technology": "LTE",
                "cell_id": "131078",
                "MCC": "505",
                "MNC": "01",
                "PCI": "6",
                "TAC": "7",
                "RSPR": "-107",
                "time": 1649152069378,
                "registered?": "1"
            }
        ],
        "m116": [
            {
                "technology": "LTE",
                "cell_id": "131078",
                "MCC": "505",
                "MNC": "01",
                "PCI": "6",
                "TAC": "7",
                "RSPR": "-107",
                "time": 1649152070371,
                "registered?": "1"
            }
        ],
        "m117": [
            {
                "technology": "LTE",
                "cell_id": "131078",
                "MCC": "505",
                "MNC": "01",
                "PCI": "6",
                "TAC": "7",
                "RSPR": "-98",
                "time": 1649152071372,
                "registered?": "1"
            }
        ],
        "m118": [
            {
                "technology": "LTE",
                "cell_id": "131078",
                "MCC": "505",
                "MNC": "01",
                "PCI": "6",
                "TAC": "7",
                "RSPR": "-98",
                "time": 1649152072375,
                "registered?": "1"
            }
        ],
        "m119": [
            {
                "technology": "LTE",
                "cell_id": "131078",
                "MCC": "505",
                "MNC": "01",
                "PCI": "6",
                "TAC": "7",
                "RSPR": "-105",
                "time": 1649152073402,
                "registered?": "1"
            }
        ],
        "m120": [
            {
                "technology": "LTE",
                "cell_id": "131078",
                "MCC": "505",
                "MNC": "01",
                "PCI": "6",
                "TAC": "7",
                "RSPR": "-105",
                "time": 1649152074376,
                "registered?": "1"
            }
        ],
        "m121": [
            {
                "technology": "LTE",
                "cell_id": "131078",
                "MCC": "505",
                "MNC": "01",
                "PCI": "6",
                "TAC": "7",
                "RSPR": "-96",
                "time": 1649152075400,
                "registered?": "1"
            }
        ],
        "m122": [
            {
                "technology": "LTE",
                "cell_id": "131078",
                "MCC": "505",
                "MNC": "01",
                "PCI": "6",
                "TAC": "7",
                "RSPR": "-96",
                "time": 1649152076366,
                "registered?": "1"
            }
        ],
        "m123": [
            {
                "technology": "LTE",
                "cell_id": "131078",
                "MCC": "505",
                "MNC": "01",
                "PCI": "6",
                "TAC": "7",
                "RSPR": "-96",
                "time": 1649152077376,
                "registered?": "1"
            }
        ],
        "m124": [
            {
                "technology": "LTE",
                "cell_id": "131078",
                "MCC": "505",
                "MNC": "01",
                "PCI": "6",
                "TAC": "7",
                "RSPR": "-100",
                "time": 1649152078398,
                "registered?": "1"
            }
        ],
        "m125": [
            {
                "technology": "LTE",
                "cell_id": "131078",
                "MCC": "505",
                "MNC": "01",
                "PCI": "6",
                "TAC": "7",
                "RSPR": "-100",
                "time": 1649152079379,
                "registered?": "1"
            }
        ],
        "m126": [
            {
                "technology": "LTE",
                "cell_id": "131078",
                "MCC": "505",
                "MNC": "01",
                "PCI": "6",
                "TAC": "7",
                "RSPR": "-99",
                "time": 1649152080398,
                "registered?": "1"
            }
        ],
        "m127": [
            {
                "technology": "LTE",
                "cell_id": "131078",
                "MCC": "505",
                "MNC": "01",
                "PCI": "6",
                "TAC": "7",
                "RSPR": "-99",
                "time": 1649152081372,
                "registered?": "1"
            }
        ],
        "m128": [
            {
                "technology": "LTE",
                "cell_id": "131078",
                "MCC": "505",
                "MNC": "01",
                "PCI": "6",
                "TAC": "7",
                "RSPR": "-99",
                "time": 1649152082365,
                "registered?": "1"
            }
        ],
        "m129": [
            {
                "technology": "LTE",
                "cell_id": "131078",
                "MCC": "505",
                "MNC": "01",
                "PCI": "6",
                "TAC": "7",
                "RSPR": "-102",
                "time": 1649152083404,
                "registered?": "1"
            }
        ],
        "m130": [
            {
                "technology": "LTE",
                "cell_id": "131078",
                "MCC": "505",
                "MNC": "01",
                "PCI": "6",
                "TAC": "7",
                "RSPR": "-102",
                "time": 1649152084375,
                "registered?": "1"
            }
        ],
        "m131": [
            {
                "technology": "LTE",
                "cell_id": "131078",
                "MCC": "505",
                "MNC": "01",
                "PCI": "6",
                "TAC": "7",
                "RSPR": "-102",
                "time": 1649152085376,
                "registered?": "1"
            }
        ],
        "m132": [
            {
                "technology": "LTE",
                "cell_id": "131078",
                "MCC": "505",
                "MNC": "01",
                "PCI": "6",
                "TAC": "7",
                "RSPR": "-106",
                "time": 1649152086404,
                "registered?": "1"
            }
        ],
        "m133": [
            {
                "technology": "LTE",
                "cell_id": "131078",
                "MCC": "505",
                "MNC": "01",
                "PCI": "6",
                "TAC": "7",
                "RSPR": "-106",
                "time": 1649152087370,
                "registered?": "1"
            }
        ],
        "m134": [
            {
                "technology": "LTE",
                "cell_id": "131078",
                "MCC": "505",
                "MNC": "01",
                "PCI": "6",
                "TAC": "7",
                "RSPR": "-106",
                "time": 1649152088366,
                "registered?": "1"
            }
        ],
        "m135": [
            {
                "technology": "LTE",
                "cell_id": "131078",
                "MCC": "505",
                "MNC": "01",
                "PCI": "6",
                "TAC": "7",
                "RSPR": "-102",
                "time": 1649152089403,
                "registered?": "1"
            }
        ],
        "m136": [
            {
                "technology": "LTE",
                "cell_id": "131078",
                "MCC": "505",
                "MNC": "01",
                "PCI": "6",
                "TAC": "7",
                "RSPR": "-102",
                "time": 1649152090375,
                "registered?": "1"
            }
        ],
        "m137": [
            {
                "technology": "LTE",
                "cell_id": "131078",
                "MCC": "505",
                "MNC": "01",
                "PCI": "6",
                "TAC": "7",
                "RSPR": "-106",
                "time": 1649152091398,
                "registered?": "1"
            }
        ],
        "m138": [
            {
                "technology": "LTE",
                "cell_id": "131078",
                "MCC": "505",
                "MNC": "01",
                "PCI": "6",
                "TAC": "7",
                "RSPR": "-106",
                "time": 1649152092376,
                "registered?": "1"
            }
        ],
        "m139": [
            {
                "technology": "LTE",
                "cell_id": "131078",
                "MCC": "505",
                "MNC": "01",
                "PCI": "6",
                "TAC": "7",
                "RSPR": "-106",
                "time": 1649152093365,
                "registered?": "1"
            }
        ],
        "m140": [
            {
                "technology": "LTE",
                "cell_id": "131078",
                "MCC": "505",
                "MNC": "01",
                "PCI": "6",
                "TAC": "7",
                "RSPR": "-102",
                "time": 1649152094404,
                "registered?": "1"
            }
        ],
        "m141": [
            {
                "technology": "LTE",
                "cell_id": "131078",
                "MCC": "505",
                "MNC": "01",
                "PCI": "6",
                "TAC": "7",
                "RSPR": "-102",
                "time": 1649152095371,
                "registered?": "1"
            }
        ],
        "m142": [
            {
                "technology": "LTE",
                "cell_id": "131078",
                "MCC": "505",
                "MNC": "01",
                "PCI": "6",
                "TAC": "7",
                "RSPR": "-101",
                "time": 1649152096398,
                "registered?": "1"
            }
        ],
        "m143": [
            {
                "technology": "LTE",
                "cell_id": "131078",
                "MCC": "505",
                "MNC": "01",
                "PCI": "6",
                "TAC": "7",
                "RSPR": "-101",
                "time": 1649152097376,
                "registered?": "1"
            }
        ],
        "m144": [
            {
                "technology": "LTE",
                "cell_id": "131078",
                "MCC": "505",
                "MNC": "01",
                "PCI": "6",
                "TAC": "7",
                "RSPR": "-100",
                "time": 1649152098396,
                "registered?": "1"
            }
        ],
        "m145": [
            {
                "technology": "LTE",
                "cell_id": "131078",
                "MCC": "505",
                "MNC": "01",
                "PCI": "6",
                "TAC": "7",
                "RSPR": "-100",
                "time": 1649152099364,
                "registered?": "1"
            }
        ],
        "m146": [
            {
                "technology": "LTE",
                "cell_id": "131078",
                "MCC": "505",
                "MNC": "01",
                "PCI": "6",
                "TAC": "7",
                "RSPR": "-104",
                "time": 1649152100399,
                "registered?": "1"
            }
        ],
        "m147": [
            {
                "technology": "LTE",
                "cell_id": "131078",
                "MCC": "505",
                "MNC": "01",
                "PCI": "6",
                "TAC": "7",
                "RSPR": "-104",
                "time": 1649152101376,
                "registered?": "1"
            }
        ],
        "m148": [
            {
                "technology": "LTE",
                "cell_id": "131078",
                "MCC": "505",
                "MNC": "01",
                "PCI": "6",
                "TAC": "7",
                "RSPR": "-100",
                "time": 1649152102398,
                "registered?": "1"
            }
        ],
        "m149": [
            {
                "technology": "LTE",
                "cell_id": "131078",
                "MCC": "505",
                "MNC": "01",
                "PCI": "6",
                "TAC": "7",
                "RSPR": "-100",
                "time": 1649152103381,
                "registered?": "1"
            }
        ],
        "m150": [
            {
                "technology": "LTE",
                "cell_id": "131078",
                "MCC": "505",
                "MNC": "01",
                "PCI": "6",
                "TAC": "7",
                "RSPR": "-100",
                "time": 1649152104377,
                "registered?": "1"
            }
        ],
        "m151": [
            {
                "technology": "LTE",
                "cell_id": "131078",
                "MCC": "505",
                "MNC": "01",
                "PCI": "6",
                "TAC": "7",
                "RSPR": "-94",
                "time": 1649152105389,
                "registered?": "1"
            }
        ],
        "m152": [
            {
                "technology": "LTE",
                "cell_id": "131078",
                "MCC": "505",
                "MNC": "01",
                "PCI": "6",
                "TAC": "7",
                "RSPR": "-94",
                "time": 1649152106364,
                "registered?": "1"
            }
        ],
        "m153": [
            {
                "technology": "LTE",
                "cell_id": "131078",
                "MCC": "505",
                "MNC": "01",
                "PCI": "6",
                "TAC": "7",
                "RSPR": "-112",
                "time": 1649152107401,
                "registered?": "1"
            }
        ],
        "m154": [
            {
                "technology": "LTE",
                "cell_id": "131078",
                "MCC": "505",
                "MNC": "01",
                "PCI": "6",
                "TAC": "7",
                "RSPR": "-112",
                "time": 1649152108377,
                "registered?": "1"
            }
        ],
        "m155": [
            {
                "technology": "LTE",
                "cell_id": "131078",
                "MCC": "505",
                "MNC": "01",
                "PCI": "6",
                "TAC": "7",
                "RSPR": "-100",
                "time": 1649152109399,
                "registered?": "1"
            }
        ],
        "m156": [
            {
                "technology": "LTE",
                "cell_id": "131078",
                "MCC": "505",
                "MNC": "01",
                "PCI": "6",
                "TAC": "7",
                "RSPR": "-100",
                "time": 1649152110378,
                "registered?": "1"
            }
        ],
        "m157": [
            {
                "technology": "LTE",
                "cell_id": "131078",
                "MCC": "505",
                "MNC": "01",
                "PCI": "6",
                "TAC": "7",
                "RSPR": "-100",
                "time": 1649152111365,
                "registered?": "1"
            }
        ],
        "m158": [
            {
                "technology": "LTE",
                "cell_id": "131078",
                "MCC": "505",
                "MNC": "01",
                "PCI": "6",
                "TAC": "7",
                "RSPR": "-101",
                "time": 1649152112401,
                "registered?": "1"
            }
        ],
        "m159": [
            {
                "technology": "LTE",
                "cell_id": "131078",
                "MCC": "505",
                "MNC": "01",
                "PCI": "6",
                "TAC": "7",
                "RSPR": "-101",
                "time": 1649152113376,
                "registered?": "1"
            }
        ],
        "m160": [
            {
                "technology": "LTE",
                "cell_id": "131078",
                "MCC": "505",
                "MNC": "01",
                "PCI": "6",
                "TAC": "7",
                "RSPR": "-101",
                "time": 1649152114375,
                "registered?": "1"
            }
        ],
        "m161": [
            {
                "technology": "LTE",
                "cell_id": "131078",
                "MCC": "505",
                "MNC": "01",
                "PCI": "6",
                "TAC": "7",
                "RSPR": "-100",
                "time": 1649152115398,
                "registered?": "1"
            }
        ],
        "m162": [
            {
                "technology": "LTE",
                "cell_id": "131078",
                "MCC": "505",
                "MNC": "01",
                "PCI": "6",
                "TAC": "7",
                "RSPR": "-100",
                "time": 1649152116375,
                "registered?": "1"
            }
        ],
        "m163": [
            {
                "technology": "LTE",
                "cell_id": "131078",
                "MCC": "505",
                "MNC": "01",
                "PCI": "6",
                "TAC": "7",
                "RSPR": "-100",
                "time": 1649152117364,
                "registered?": "1"
            }
        ],
        "m164": [
            {
                "technology": "LTE",
                "cell_id": "131078",
                "MCC": "505",
                "MNC": "01",
                "PCI": "6",
                "TAC": "7",
                "RSPR": "-100",
                "time": 1649152118400,
                "registered?": "1"
            }
        ],
        "m165": [
            {
                "technology": "LTE",
                "cell_id": "131078",
                "MCC": "505",
                "MNC": "01",
                "PCI": "6",
                "TAC": "7",
                "RSPR": "-100",
                "time": 1649152119376,
                "registered?": "1"
            }
        ],
        "m166": [
            {
                "technology": "LTE",
                "cell_id": "131078",
                "MCC": "505",
                "MNC": "01",
                "PCI": "6",
                "TAC": "7",
                "RSPR": "-100",
                "time": 1649152120401,
                "registered?": "1"
            }
        ],
        "m167": [
            {
                "technology": "LTE",
                "cell_id": "131078",
                "MCC": "505",
                "MNC": "01",
                "PCI": "6",
                "TAC": "7",
                "RSPR": "-100",
                "time": 1649152121376,
                "registered?": "1"
            }
        ],
        "m168": [
            {
                "technology": "LTE",
                "cell_id": "131078",
                "MCC": "505",
                "MNC": "01",
                "PCI": "6",
                "TAC": "7",
                "RSPR": "-100",
                "time": 1649152122369,
                "registered?": "1"
            }
        ],
        "m169": [
            {
                "technology": "LTE",
                "cell_id": "131078",
                "MCC": "505",
                "MNC": "01",
                "PCI": "6",
                "TAC": "7",
                "RSPR": "-100",
                "time": 1649152123369,
                "registered?": "1"
            }
        ],
        "m170": [
            {
                "technology": "LTE",
                "cell_id": "131078",
                "MCC": "505",
                "MNC": "01",
                "PCI": "6",
                "TAC": "7",
                "RSPR": "-100",
                "time": 1649152124376,
                "registered?": "1"
            }
        ],
        "m171": [
            {
                "technology": "LTE",
                "cell_id": "131078",
                "MCC": "505",
                "MNC": "01",
                "PCI": "6",
                "TAC": "7",
                "RSPR": "-100",
                "time": 1649152125400,
                "registered?": "1"
            }
        ],
        "m172": [
            {
                "technology": "LTE",
                "cell_id": "131078",
                "MCC": "505",
                "MNC": "01",
                "PCI": "6",
                "TAC": "7",
                "RSPR": "-100",
                "time": 1649152126376,
                "registered?": "1"
            }
        ],
        "m173": [
            {
                "technology": "LTE",
                "cell_id": "131078",
                "MCC": "505",
                "MNC": "01",
                "PCI": "6",
                "TAC": "7",
                "RSPR": "-100",
                "time": 1649152127398,
                "registered?": "1"
            }
        ],
        "m174": [
            {
                "technology": "LTE",
                "cell_id": "131078",
                "MCC": "505",
                "MNC": "01",
                "PCI": "6",
                "TAC": "7",
                "RSPR": "-100",
                "time": 1649152128369,
                "registered?": "1"
            }
        ],
        "m175": [
            {
                "technology": "LTE",
                "cell_id": "131078",
                "MCC": "505",
                "MNC": "01",
                "PCI": "6",
                "TAC": "7",
                "RSPR": "-100",
                "time": 1649152129366,
                "registered?": "1"
            }
        ],
        "m176": [
            {
                "technology": "LTE",
                "cell_id": "131078",
                "MCC": "505",
                "MNC": "01",
                "PCI": "6",
                "TAC": "7",
                "RSPR": "-99",
                "time": 1649152130401,
                "registered?": "1"
            }
        ],
        "m177": [
            {
                "technology": "LTE",
                "cell_id": "131078",
                "MCC": "505",
                "MNC": "01",
                "PCI": "6",
                "TAC": "7",
                "RSPR": "-99",
                "time": 1649152131376,
                "registered?": "1"
            }
        ],
        "m178": [
            {
                "technology": "LTE",
                "cell_id": "131078",
                "MCC": "505",
                "MNC": "01",
                "PCI": "6",
                "TAC": "7",
                "RSPR": "-99",
                "time": 1649152132399,
                "registered?": "1"
            }
        ],
        "m179": [
            {
                "technology": "LTE",
                "cell_id": "131078",
                "MCC": "505",
                "MNC": "01",
                "PCI": "6",
                "TAC": "7",
                "RSPR": "-99",
                "time": 1649152133377,
                "registered?": "1"
            }
        ],
        "m180": [
            {
                "technology": "LTE",
                "cell_id": "131078",
                "MCC": "505",
                "MNC": "01",
                "PCI": "6",
                "TAC": "7",
                "RSPR": "-99",
                "time": 1649152134365,
                "registered?": "1"
            }
        ],
        "m181": [
            {
                "technology": "LTE",
                "cell_id": "131078",
                "MCC": "505",
                "MNC": "01",
                "PCI": "6",
                "TAC": "7",
                "RSPR": "-96",
                "time": 1649152135399,
                "registered?": "1"
            }
        ],
        "m182": [
            {
                "technology": "LTE",
                "cell_id": "131078",
                "MCC": "505",
                "MNC": "01",
                "PCI": "6",
                "TAC": "7",
                "RSPR": "-96",
                "time": 1649152136377,
                "registered?": "1"
            }
        ],
        "m183": [
            {
                "technology": "LTE",
                "cell_id": "131078",
                "MCC": "505",
                "MNC": "01",
                "PCI": "6",
                "TAC": "7",
                "RSPR": "-104",
                "time": 1649152137400,
                "registered?": "1"
            }
        ],
        "m184": [
            {
                "technology": "LTE",
                "cell_id": "131078",
                "MCC": "505",
                "MNC": "01",
                "PCI": "6",
                "TAC": "7",
                "RSPR": "-104",
                "time": 1649152138377,
                "registered?": "1"
            }
        ],
        "m185": [
            {
                "technology": "LTE",
                "cell_id": "131078",
                "MCC": "505",
                "MNC": "01",
                "PCI": "6",
                "TAC": "7",
                "RSPR": "-104",
                "time": 1649152139370,
                "registered?": "1"
            }
        ],
        "m186": [
            {
                "technology": "LTE",
                "cell_id": "131078",
                "MCC": "505",
                "MNC": "01",
                "PCI": "6",
                "TAC": "7",
                "RSPR": "-104",
                "time": 1649152140371,
                "registered?": "1"
            }
        ],
        "m187": [
            {
                "technology": "LTE",
                "cell_id": "131078",
                "MCC": "505",
                "MNC": "01",
                "PCI": "6",
                "TAC": "7",
                "RSPR": "-104",
                "time": 1649152141375,
                "registered?": "1"
            }
        ],
        "m188": [
            {
                "technology": "LTE",
                "cell_id": "131078",
                "MCC": "505",
                "MNC": "01",
                "PCI": "6",
                "TAC": "7",
                "RSPR": "-101",
                "time": 1649152142396,
                "registered?": "1"
            }
        ],
        "m189": [
            {
                "technology": "LTE",
                "cell_id": "131078",
                "MCC": "505",
                "MNC": "01",
                "PCI": "6",
                "TAC": "7",
                "RSPR": "-101",
                "time": 1649152143375,
                "registered?": "1"
            }
        ],
        "m190": [
            {
                "technology": "LTE",
                "cell_id": "131078",
                "MCC": "505",
                "MNC": "01",
                "PCI": "6",
                "TAC": "7",
                "RSPR": "-104",
                "time": 1649152144395,
                "registered?": "1"
            }
        ]
    }
}