{
    "measurements": {
        "m0": [
            {
                "technology": "LTE",
                "cell_id": "131078",
                "MCC": "505",
                "MNC": "01",
                "PCI": "6",
                "TAC": "7",
                "RSPR": "-95",
                "time": 1649150217523,
                "registered?": "1"
            }
        ],
        "m1": [
            {
                "technology": "LTE",
                "cell_id": "131078",
                "MCC": "505",
                "MNC": "01",
                "PCI": "6",
                "TAC": "7",
                "RSPR": "-95",
                "time": 1649150218505,
                "registered?": "1"
            }
        ],
        "m2": [
            {
                "technology": "LTE",
                "cell_id": "131078",
                "MCC": "505",
                "MNC": "01",
                "PCI": "6",
                "TAC": "7",
                "RSPR": "-95",
                "time": 1649150219502,
                "registered?": "1"
            }
        ],
        "m3": [
            {
                "technology": "LTE",
                "cell_id": "131078",
                "MCC": "505",
                "MNC": "01",
                "PCI": "6",
                "TAC": "7",
                "RSPR": "-97",
                "time": 1649150220501,
                "registered?": "1"
            }
        ],
        "m4": [
            {
                "technology": "LTE",
                "cell_id": "131078",
                "MCC": "505",
                "MNC": "01",
                "PCI": "6",
                "TAC": "7",
                "RSPR": "-97",
                "time": 1649150221506,
                "registered?": "1"
            }
        ],
        "m5": [
            {
                "technology": "LTE",
                "cell_id": "131078",
                "MCC": "505",
                "MNC": "01",
                "PCI": "6",
                "TAC": "7",
                "RSPR": "-98",
                "time": 1649150222521,
                "registered?": "1"
            }
        ],
        "m6": [
            {
                "technology": "LTE",
                "cell_id": "131078",
                "MCC": "505",
                "MNC": "01",
                "PCI": "6",
                "TAC": "7",
                "RSPR": "-98",
                "time": 1649150223505,
                "registered?": "1"
            }
        ],
        "m7": [
            {
                "technology": "LTE",
                "cell_id": "131078",
                "MCC": "505",
                "MNC": "01",
                "PCI": "6",
                "TAC": "7",
                "RSPR": "-98",
                "time": 1649150224504,
                "registered?": "1"
            }
        ],
        "m8": [
            {
                "technology": "LTE",
                "cell_id": "131078",
                "MCC": "505",
                "MNC": "01",
                "PCI": "6",
                "TAC": "7",
                "RSPR": "-105",
                "time": 1649150225518,
                "registered?": "1"
            }
        ],
        "m9": [
            {
                "technology": "LTE",
                "cell_id": "131078",
                "MCC": "505",
                "MNC": "01",
                "PCI": "6",
                "TAC": "7",
                "RSPR": "-105",
                "time": 1649150226495,
                "registered?": "1"
            }
        ],
        "m10": [
            {
                "technology": "LTE",
                "cell_id": "131078",
                "MCC": "505",
                "MNC": "01",
                "PCI": "6",
                "TAC": "7",
                "RSPR": "-102",
                "time": 1649150227529,
                "registered?": "1"
            }
        ],
        "m11": [
            {
                "technology": "LTE",
                "cell_id": "131078",
                "MCC": "505",
                "MNC": "01",
                "PCI": "6",
                "TAC": "7",
                "RSPR": "-102",
                "time": 1649150228504,
                "registered?": "1"
            }
        ],
        "m12": [
            {
                "technology": "LTE",
                "cell_id": "131078",
                "MCC": "505",
                "MNC": "01",
                "PCI": "6",
                "TAC": "7",
                "RSPR": "-101",
                "time": 1649150229526,
                "registered?": "1"
            }
        ],
        "m13": [
            {
                "technology": "LTE",
                "cell_id": "131078",
                "MCC": "505",
                "MNC": "01",
                "PCI": "6",
                "TAC": "7",
                "RSPR": "-101",
                "time": 1649150230506,
                "registered?": "1"
            }
        ],
        "m14": [
            {
                "technology": "LTE",
                "cell_id": "131078",
                "MCC": "505",
                "MNC": "01",
                "PCI": "6",
                "TAC": "7",
                "RSPR": "-101",
                "time": 1649150231501,
                "registered?": "1"
            }
        ],
        "m15": [
            {
                "technology": "LTE",
                "cell_id": "131078",
                "MCC": "505",
                "MNC": "01",
                "PCI": "6",
                "TAC": "7",
                "RSPR": "-101",
                "time": 1649150232502,
                "registered?": "1"
            }
        ],
        "m16": [
            {
                "technology": "LTE",
                "cell_id": "131078",
                "MCC": "505",
                "MNC": "01",
                "PCI": "6",
                "TAC": "7",
                "RSPR": "-101",
                "time": 1649150233504,
                "registered?": "1"
            }
        ],
        "m17": [
            {
                "technology": "LTE",
                "cell_id": "131078",
                "MCC": "505",
                "MNC": "01",
                "PCI": "6",
                "TAC": "7",
                "RSPR": "-102",
                "time": 1649150234522,
                "registered?": "1"
            }
        ],
        "m18": [
            {
                "technology": "LTE",
                "cell_id": "131078",
                "MCC": "505",
                "MNC": "01",
                "PCI": "6",
                "TAC": "7",
                "RSPR": "-102",
                "time": 1649150235506,
                "registered?": "1"
            }
        ],
        "m19": [
            {
                "technology": "LTE",
                "cell_id": "131078",
                "MCC": "505",
                "MNC": "01",
                "PCI": "6",
                "TAC": "7",
                "RSPR": "-102",
                "time": 1649150236523,
                "registered?": "1"
            }
        ],
        "m20": [
            {
                "technology": "LTE",
                "cell_id": "131078",
                "MCC": "505",
                "MNC": "01",
                "PCI": "6",
                "TAC": "7",
                "RSPR": "-102",
                "time": 1649150237494,
                "registered?": "1"
            }
        ],
        "m21": [
            {
                "technology": "LTE",
                "cell_id": "131078",
                "MCC": "505",
                "MNC": "01",
                "PCI": "6",
                "TAC": "7",
                "RSPR": "-99",
                "time": 1649150238527,
                "registered?": "1"
            }
        ],
        "m22": [
            {
                "technology": "LTE",
                "cell_id": "131078",
                "MCC": "505",
                "MNC": "01",
                "PCI": "6",
                "TAC": "7",
                "RSPR": "-99",
                "time": 1649150239505,
                "registered?": "1"
            }
        ],
        "m23": [
            {
                "technology": "LTE",
                "cell_id": "131078",
                "MCC": "505",
                "MNC": "01",
                "PCI": "6",
                "TAC": "7",
                "RSPR": "-99",
                "time": 1649150240503,
                "registered?": "1"
            }
        ],
        "m24": [
            {
                "technology": "LTE",
                "cell_id": "131078",
                "MCC": "505",
                "MNC": "01",
                "PCI": "6",
                "TAC": "7",
                "RSPR": "-97",
                "time": 1649150241533,
                "registered?": "1"
            }
        ],
        "m25": [
            {
                "technology": "LTE",
                "cell_id": "131078",
                "MCC": "505",
                "MNC": "01",
                "PCI": "6",
                "TAC": "7",
                "RSPR": "-97",
                "time": 1649150242497,
                "registered?": "1"
            }
        ],
        "m26": [
            {
                "technology": "LTE",
                "cell_id": "131078",
                "MCC": "505",
                "MNC": "01",
                "PCI": "6",
                "TAC": "7",
                "RSPR": "-97",
                "time": 1649150243495,
                "registered?": "1"
            }
        ],
        "m27": [
            {
                "technology": "LTE",
                "cell_id": "131078",
                "MCC": "505",
                "MNC": "01",
                "PCI": "6",
                "TAC": "7",
                "RSPR": "-101",
                "time": 1649150244528,
                "registered?": "1"
            }
        ],
        "m28": [
            {
                "technology": "LTE",
                "cell_id": "131078",
                "MCC": "505",
                "MNC": "01",
                "PCI": "6",
                "TAC": "7",
                "RSPR": "-101",
                "time": 1649150245505,
                "registered?": "1"
            }
        ],
        "m29": [
            {
                "technology": "LTE",
                "cell_id": "131078",
                "MCC": "505",
                "MNC": "01",
                "PCI": "6",
                "TAC": "7",
                "RSPR": "-97",
                "time": 1649150246538,
                "registered?": "1"
            }
        ],
        "m30": [
            {
                "technology": "LTE",
                "cell_id": "131078",
                "MCC": "505",
                "MNC": "01",
                "PCI": "6",
                "TAC": "7",
                "RSPR": "-97",
                "time": 1649150247504,
                "registered?": "1"
            }
        ],
        "m31": [
            {
                "technology": "LTE",
                "cell_id": "131078",
                "MCC": "505",
                "MNC": "01",
                "PCI": "6",
                "TAC": "7",
                "RSPR": "-97",
                "time": 1649150248501,
                "registered?": "1"
            }
        ],
        "m32": [
            {
                "technology": "LTE",
                "cell_id": "131078",
                "MCC": "505",
                "MNC": "01",
                "PCI": "6",
                "TAC": "7",
                "RSPR": "-96",
                "time": 1649150249499,
                "registered?": "1"
            }
        ],
        "m33": [
            {
                "technology": "LTE",
                "cell_id": "131078",
                "MCC": "505",
                "MNC": "01",
                "PCI": "6",
                "TAC": "7",
                "RSPR": "-96",
                "time": 1649150250505,
                "registered?": "1"
            }
        ],
        "m34": [
            {
                "technology": "LTE",
                "cell_id": "131078",
                "MCC": "505",
                "MNC": "01",
                "PCI": "6",
                "TAC": "7",
                "RSPR": "-100",
                "time": 1649150251525,
                "registered?": "1"
            }
        ],
        "m35": [
            {
                "technology": "LTE",
                "cell_id": "131078",
                "MCC": "505",
                "MNC": "01",
                "PCI": "6",
                "TAC": "7",
                "RSPR": "-100",
                "time": 1649150252505,
                "registered?": "1"
            }
        ],
        "m36": [
            {
                "technology": "LTE",
                "cell_id": "131078",
                "MCC": "505",
                "MNC": "01",
                "PCI": "6",
                "TAC": "7",
                "RSPR": "-100",
                "time": 1649150253504,
                "registered?": "1"
            }
        ],
        "m37": [
            {
                "technology": "LTE",
                "cell_id": "131078",
                "MCC": "505",
                "MNC": "01",
                "PCI": "6",
                "TAC": "7",
                "RSPR": "-95",
                "time": 1649150254518,
                "registered?": "1"
            }
        ],
        "m38": [
            {
                "technology": "LTE",
                "cell_id": "131078",
                "MCC": "505",
                "MNC": "01",
                "PCI": "6",
                "TAC": "7",
                "RSPR": "-95",
                "time": 1649150255494,
                "registered?": "1"
            }
        ],
        "m39": [
            {
                "technology": "LTE",
                "cell_id": "131078",
                "MCC": "505",
                "MNC": "01",
                "PCI": "6",
                "TAC": "7",
                "RSPR": "-94",
                "time": 1649150256530,
                "registered?": "1"
            }
        ],
        "m40": [
            {
                "technology": "LTE",
                "cell_id": "131078",
                "MCC": "505",
                "MNC": "01",
                "PCI": "6",
                "TAC": "7",
                "RSPR": "-94",
                "time": 1649150257504,
                "registered?": "1"
            }
        ],
        "m41": [
            {
                "technology": "LTE",
                "cell_id": "131078",
                "MCC": "505",
                "MNC": "01",
                "PCI": "6",
                "TAC": "7",
                "RSPR": "-95",
                "time": 1649150258528,
                "registered?": "1"
            }
        ],
        "m42": [
            {
                "technology": "LTE",
                "cell_id": "131078",
                "MCC": "505",
                "MNC": "01",
                "PCI": "6",
                "TAC": "7",
                "RSPR": "-95",
                "time": 1649150259505,
                "registered?": "1"
            }
        ],
        "m43": [
            {
                "technology": "LTE",
                "cell_id": "131078",
                "MCC": "505",
                "MNC": "01",
                "PCI": "6",
                "TAC": "7",
                "RSPR": "-95",
                "time": 1649150260503,
                "registered?": "1"
            }
        ],
        "m44": [
            {
                "technology": "LTE",
                "cell_id": "131078",
                "MCC": "505",
                "MNC": "01",
                "PCI": "6",
                "TAC": "7",
                "RSPR": "-98",
                "time": 1649150261502,
                "registered?": "1"
            }
        ],
        "m45": [
            {
                "technology": "LTE",
                "cell_id": "131078",
                "MCC": "505",
                "MNC": "01",
                "PCI": "6",
                "TAC": "7",
                "RSPR": "-98",
                "time": 1649150262504,
                "registered?": "1"
            }
        ],
        "m46": [
            {
                "technology": "LTE",
                "cell_id": "131078",
                "MCC": "505",
                "MNC": "01",
                "PCI": "6",
                "TAC": "7",
                "RSPR": "-97",
                "time": 1649150263526,
                "registered?": "1"
            }
        ],
        "m47": [
            {
                "technology": "LTE",
                "cell_id": "131078",
                "MCC": "505",
                "MNC": "01",
                "PCI": "6",
                "TAC": "7",
                "RSPR": "-97",
                "time": 1649150264504,
                "registered?": "1"
            }
        ],
        "m48": [
            {
                "technology": "LTE",
                "cell_id": "131078",
                "MCC": "505",
                "MNC": "01",
                "PCI": "6",
                "TAC": "7",
                "RSPR": "-97",
                "time": 1649150265525,
                "registered?": "1"
            }
        ],
        "m49": [
            {
                "technology": "LTE",
                "cell_id": "131078",
                "MCC": "505",
                "MNC": "01",
                "PCI": "6",
                "TAC": "7",
                "RSPR": "-97",
                "time": 1649150266499,
                "registered?": "1"
            }
        ],
        "m50": [
            {
                "technology": "LTE",
                "cell_id": "131078",
                "MCC": "505",
                "MNC": "01",
                "PCI": "6",
                "TAC": "7",
                "RSPR": "-97",
                "time": 1649150267495,
                "registered?": "1"
            }
        ],
        "m51": [
            {
                "technology": "LTE",
                "cell_id": "131078",
                "MCC": "505",
                "MNC": "01",
                "PCI": "6",
                "TAC": "7",
                "RSPR": "-98",
                "time": 1649150268522,
                "registered?": "1"
            }
        ],
        "m52": [
            {
                "technology": "LTE",
                "cell_id": "131078",
                "MCC": "505",
                "MNC": "01",
                "PCI": "6",
                "TAC": "7",
                "RSPR": "-98",
                "time": 1649150269503,
                "registered?": "1"
            }
        ],
        "m53": [
            {
                "technology": "LTE",
                "cell_id": "131078",
                "MCC": "505",
                "MNC": "01",
                "PCI": "6",
                "TAC": "7",
                "RSPR": "-97",
                "time": 1649150270522,
                "registered?": "1"
            }
        ],
        "m54": [
            {
                "technology": "LTE",
                "cell_id": "131078",
                "MCC": "505",
                "MNC": "01",
                "PCI": "6",
                "TAC": "7",
                "RSPR": "-97",
                "time": 1649150271501,
                "registered?": "1"
            }
        ],
        "m55": [
            {
                "technology": "LTE",
                "cell_id": "131078",
                "MCC": "505",
                "MNC": "01",
                "PCI": "6",
                "TAC": "7",
                "RSPR": "-97",
                "time": 1649150272495,
                "registered?": "1"
            }
        ],
        "m56": [
            {
                "technology": "LTE",
                "cell_id": "131078",
                "MCC": "505",
                "MNC": "01",
                "PCI": "6",
                "TAC": "7",
                "RSPR": "-100",
                "time": 1649150273524,
                "registered?": "1"
            }
        ],
        "m57": [
            {
                "technology": "LTE",
                "cell_id": "131078",
                "MCC": "505",
                "MNC": "01",
                "PCI": "6",
                "TAC": "7",
                "RSPR": "-100",
                "time": 1649150274505,
                "registered?": "1"
            }
        ],
        "m58": [
            {
                "technology": "LTE",
                "cell_id": "131078",
                "MCC": "505",
                "MNC": "01",
                "PCI": "6",
                "TAC": "7",
                "RSPR": "-100",
                "time": 1649150275529,
                "registered?": "1"
            }
        ],
        "m59": [
            {
                "technology": "LTE",
                "cell_id": "131078",
                "MCC": "505",
                "MNC": "01",
                "PCI": "6",
                "TAC": "7",
                "RSPR": "-100",
                "time": 1649150276503,
                "registered?": "1"
            }
        ],
        "m60": [
            {
                "technology": "LTE",
                "cell_id": "131078",
                "MCC": "505",
                "MNC": "01",
                "PCI": "6",
                "TAC": "7",
                "RSPR": "-100",
                "time": 1649150277500,
                "registered?": "1"
            }
        ],
        "m61": [
            {
                "technology": "LTE",
                "cell_id": "131078",
                "MCC": "505",
                "MNC": "01",
                "PCI": "6",
                "TAC": "7",
                "RSPR": "-96",
                "time": 1649150278501,
                "registered?": "1"
            }
        ],
        "m62": [
            {
                "technology": "LTE",
                "cell_id": "131078",
                "MCC": "505",
                "MNC": "01",
                "PCI": "6",
                "TAC": "7",
                "RSPR": "-96",
                "time": 1649150279505,
                "registered?": "1"
            }
        ],
        "m63": [
            {
                "technology": "LTE",
                "cell_id": "131078",
                "MCC": "505",
                "MNC": "01",
                "PCI": "6",
                "TAC": "7",
                "RSPR": "-96",
                "time": 1649150280525,
                "registered?": "1"
            }
        ],
        "m64": [
            {
                "technology": "LTE",
                "cell_id": "131078",
                "MCC": "505",
                "MNC": "01",
                "PCI": "6",
                "TAC": "7",
                "RSPR": "-96",
                "time": 1649150281506,
                "registered?": "1"
            }
        ],
        "m65": [
            {
                "technology": "LTE",
                "cell_id": "131078",
                "MCC": "505",
                "MNC": "01",
                "PCI": "6",
                "TAC": "7",
                "RSPR": "-95",
                "time": 1649150282524,
                "registered?": "1"
            }
        ],
        "m66": [
            {
                "technology": "LTE",
                "cell_id": "131078",
                "MCC": "505",
                "MNC": "01",
                "PCI": "6",
                "TAC": "7",
                "RSPR": "-95",
                "time": 1649150283501,
                "registered?": "1"
            }
        ],
        "m67": [
            {
                "technology": "LTE",
                "cell_id": "131078",
                "MCC": "505",
                "MNC": "01",
                "PCI": "6",
                "TAC": "7",
                "RSPR": "-95",
                "time": 1649150284495,
                "registered?": "1"
            }
        ],
        "m68": [
            {
                "technology": "LTE",
                "cell_id": "131078",
                "MCC": "505",
                "MNC": "01",
                "PCI": "6",
                "TAC": "7",
                "RSPR": "-95",
                "time": 1649150285524,
                "registered?": "1"
            }
        ],
        "m69": [
            {
                "technology": "LTE",
                "cell_id": "131078",
                "MCC": "505",
                "MNC": "01",
                "PCI": "6",
                "TAC": "7",
                "RSPR": "-95",
                "time": 1649150286505,
                "registered?": "1"
            }
        ],
        "m70": [
            {
                "technology": "LTE",
                "cell_id": "131078",
                "MCC": "505",
                "MNC": "01",
                "PCI": "6",
                "TAC": "7",
                "RSPR": "-94",
                "time": 1649150287523,
                "registered?": "1"
            }
        ],
        "m71": [
            {
                "technology": "LTE",
                "cell_id": "131078",
                "MCC": "505",
                "MNC": "01",
                "PCI": "6",
                "TAC": "7",
                "RSPR": "-94",
                "time": 1649150288505,
                "registered?": "1"
            }
        ],
        "m72": [
            {
                "technology": "LTE",
                "cell_id": "131078",
                "MCC": "505",
                "MNC": "01",
                "PCI": "6",
                "TAC": "7",
                "RSPR": "-94",
                "time": 1649150289495,
                "registered?": "1"
            }
        ],
        "m73": [
            {
                "technology": "LTE",
                "cell_id": "131078",
                "MCC": "505",
                "MNC": "01",
                "PCI": "6",
                "TAC": "7",
                "RSPR": "-93",
                "time": 1649150290526,
                "registered?": "1"
            }
        ],
        "m74": [
            {
                "technology": "LTE",
                "cell_id": "131078",
                "MCC": "505",
                "MNC": "01",
                "PCI": "6",
                "TAC": "7",
                "RSPR": "-93",
                "time": 1649150291505,
                "registered?": "1"
            }
        ],
        "m75": [
            {
                "technology": "LTE",
                "cell_id": "131078",
                "MCC": "505",
                "MNC": "01",
                "PCI": "6",
                "TAC": "7",
                "RSPR": "-93",
                "time": 1649150292505,
                "registered?": "1"
            }
        ],
        "m76": [
            {
                "technology": "LTE",
                "cell_id": "131078",
                "MCC": "505",
                "MNC": "01",
                "PCI": "6",
                "TAC": "7",
                "RSPR": "-95",
                "time": 1649150293524,
                "registered?": "1"
            }
        ],
        "m77": [
            {
                "technology": "LTE",
                "cell_id": "131078",
                "MCC": "505",
                "MNC": "01",
                "PCI": "6",
                "TAC": "7",
                "RSPR": "-95",
                "time": 1649150294499,
                "registered?": "1"
            }
        ],
        "m78": [
            {
                "technology": "LTE",
                "cell_id": "131078",
                "MCC": "505",
                "MNC": "01",
                "PCI": "6",
                "TAC": "7",
                "RSPR": "-95",
                "time": 1649150295494,
                "registered?": "1"
            }
        ],
        "m79": [
            {
                "technology": "LTE",
                "cell_id": "131078",
                "MCC": "505",
                "MNC": "01",
                "PCI": "6",
                "TAC": "7",
                "RSPR": "-93",
                "time": 1649150296529,
                "registered?": "1"
            }
        ],
        "m80": [
            {
                "technology": "LTE",
                "cell_id": "131078",
                "MCC": "505",
                "MNC": "01",
                "PCI": "6",
                "TAC": "7",
                "RSPR": "-93",
                "time": 1649150297505,
                "registered?": "1"
            }
        ],
        "m81": [
            {
                "technology": "LTE",
                "cell_id": "131078",
                "MCC": "505",
                "MNC": "01",
                "PCI": "6",
                "TAC": "7",
                "RSPR": "-91",
                "time": 1649150298527,
                "registered?": "1"
            }
        ],
        "m82": [
            {
                "technology": "LTE",
                "cell_id": "131078",
                "MCC": "505",
                "MNC": "01",
                "PCI": "6",
                "TAC": "7",
                "RSPR": "-91",
                "time": 1649150299505,
                "registered?": "1"
            }
        ],
        "m83": [
            {
                "technology": "LTE",
                "cell_id": "131078",
                "MCC": "505",
                "MNC": "01",
                "PCI": "6",
                "TAC": "7",
                "RSPR": "-91",
                "time": 1649150300501,
                "registered?": "1"
            }
        ],
        "m84": [
            {
                "technology": "LTE",
                "cell_id": "131078",
                "MCC": "505",
                "MNC": "01",
                "PCI": "6",
                "TAC": "7",
                "RSPR": "-92",
                "time": 1649150301500,
                "registered?": "1"
            }
        ],
        "m85": [
            {
                "technology": "LTE",
                "cell_id": "131078",
                "MCC": "505",
                "MNC": "01",
                "PCI": "6",
                "TAC": "7",
                "RSPR": "-92",
                "time": 1649150302505,
                "registered?": "1"
            }
        ],
        "m86": [
            {
                "technology": "LTE",
                "cell_id": "131078",
                "MCC": "505",
                "MNC": "01",
                "PCI": "6",
                "TAC": "7",
                "RSPR": "-93",
                "time": 1649150303528,
                "registered?": "1"
            }
        ],
        "m87": [
            {
                "technology": "LTE",
                "cell_id": "131078",
                "MCC": "505",
                "MNC": "01",
                "PCI": "6",
                "TAC": "7",
                "RSPR": "-93",
                "time": 1649150304504,
                "registered?": "1"
            }
        ],
        "m88": [
            {
                "technology": "LTE",
                "cell_id": "131078",
                "MCC": "505",
                "MNC": "01",
                "PCI": "6",
                "TAC": "7",
                "RSPR": "-91",
                "time": 1649150305522,
                "registered?": "1"
            }
        ],
        "m89": [
            {
                "technology": "LTE",
                "cell_id": "131078",
                "MCC": "505",
                "MNC": "01",
                "PCI": "6",
                "TAC": "7",
                "RSPR": "-91",
                "time": 1649150306493,
                "registered?": "1"
            }
        ],
        "m90": [
            {
                "technology": "LTE",
                "cell_id": "131078",
                "MCC": "505",
                "MNC": "01",
                "PCI": "6",
                "TAC": "7",
                "RSPR": "-92",
                "time": 1649150307520,
                "registered?": "1"
            }
        ],
        "m91": [
            {
                "technology": "LTE",
                "cell_id": "131078",
                "MCC": "505",
                "MNC": "01",
                "PCI": "6",
                "TAC": "7",
                "RSPR": "-92",
                "time": 1649150308499,
                "registered?": "1"
            }
        ],
        "m92": [
            {
                "technology": "LTE",
                "cell_id": "131078",
                "MCC": "505",
                "MNC": "01",
                "PCI": "6",
                "TAC": "7",
                "RSPR": "-92",
                "time": 1649150309504,
                "registered?": "1"
            }
        ],
        "m93": [
            {
                "technology": "LTE",
                "cell_id": "131078",
                "MCC": "505",
                "MNC": "01",
                "PCI": "6",
                "TAC": "7",
                "RSPR": "-94",
                "time": 1649150310523,
                "registered?": "1"
            }
        ],
        "m94": [
            {
                "technology": "LTE",
                "cell_id": "131078",
                "MCC": "505",
                "MNC": "01",
                "PCI": "6",
                "TAC": "7",
                "RSPR": "-94",
                "time": 1649150311501,
                "registered?": "1"
            }
        ],
        "m95": [
            {
                "technology": "LTE",
                "cell_id": "131078",
                "MCC": "505",
                "MNC": "01",
                "PCI": "6",
                "TAC": "7",
                "RSPR": "-94",
                "time": 1649150312494,
                "registered?": "1"
            }
        ],
        "m96": [
            {
                "technology": "LTE",
                "cell_id": "131078",
                "MCC": "505",
                "MNC": "01",
                "PCI": "6",
                "TAC": "7",
                "RSPR": "-91",
                "time": 1649150313514,
                "registered?": "1"
            }
        ],
        "m97": [
            {
                "technology": "LTE",
                "cell_id": "131078",
                "MCC": "505",
                "MNC": "01",
                "PCI": "6",
                "TAC": "7",
                "RSPR": "-91",
                "time": 1649150314523,
                "registered?": "1"
            }
        ],
        "m98": [
            {
                "technology": "LTE",
                "cell_id": "131078",
                "MCC": "505",
                "MNC": "01",
                "PCI": "6",
                "TAC": "7",
                "RSPR": "-96",
                "time": 1649150315539,
                "registered?": "1"
            }
        ],
        "m99": [
            {
                "technology": "LTE",
                "cell_id": "131078",
                "MCC": "505",
                "MNC": "01",
                "PCI": "6",
                "TAC": "7",
                "RSPR": "-96",
                "time": 1649150316504,
                "registered?": "1"
            }
        ],
        "m100": [
            {
                "technology": "LTE",
                "cell_id": "131078",
                "MCC": "505",
                "MNC": "01",
                "PCI": "6",
                "TAC": "7",
                "RSPR": "-96",
                "time": 1649150317499,
                "registered?": "1"
            }
        ],
        "m101": [
            {
                "technology": "LTE",
                "cell_id": "131078",
                "MCC": "505",
                "MNC": "01",
                "PCI": "6",
                "TAC": "7",
                "RSPR": "-93",
                "time": 1649150318500,
                "registered?": "1"
            }
        ],
        "m102": [
            {
                "technology": "LTE",
                "cell_id": "131078",
                "MCC": "505",
                "MNC": "01",
                "PCI": "6",
                "TAC": "7",
                "RSPR": "-93",
                "time": 1649150319505,
                "registered?": "1"
            }
        ],
        "m103": [
            {
                "technology": "LTE",
                "cell_id": "131078",
                "MCC": "505",
                "MNC": "01",
                "PCI": "6",
                "TAC": "7",
                "RSPR": "-90",
                "time": 1649150320523,
                "registered?": "1"
            }
        ],
        "m104": [
            {
                "technology": "LTE",
                "cell_id": "131078",
                "MCC": "505",
                "MNC": "01",
                "PCI": "6",
                "TAC": "7",
                "RSPR": "-90",
                "time": 1649150321505,
                "registered?": "1"
            }
        ],
        "m105": [
            {
                "technology": "LTE",
                "cell_id": "131078",
                "MCC": "505",
                "MNC": "01",
                "PCI": "6",
                "TAC": "7",
                "RSPR": "-93",
                "time": 1649150322529,
                "registered?": "1"
            }
        ],
        "m106": [
            {
                "technology": "LTE",
                "cell_id": "131078",
                "MCC": "505",
                "MNC": "01",
                "PCI": "6",
                "TAC": "7",
                "RSPR": "-93",
                "time": 1649150323503,
                "registered?": "1"
            }
        ],
        "m107": [
            {
                "technology": "LTE",
                "cell_id": "131078",
                "MCC": "505",
                "MNC": "01",
                "PCI": "6",
                "TAC": "7",
                "RSPR": "-93",
                "time": 1649150324495,
                "registered?": "1"
            }
        ],
        "m108": [
            {
                "technology": "LTE",
                "cell_id": "131078",
                "MCC": "505",
                "MNC": "01",
                "PCI": "6",
                "TAC": "7",
                "RSPR": "-92",
                "time": 1649150325523,
                "registered?": "1"
            }
        ],
        "m109": [
            {
                "technology": "LTE",
                "cell_id": "131078",
                "MCC": "505",
                "MNC": "01",
                "PCI": "6",
                "TAC": "7",
                "RSPR": "-92",
                "time": 1649150326505,
                "registered?": "1"
            }
        ],
        "m110": [
            {
                "technology": "LTE",
                "cell_id": "131078",
                "MCC": "505",
                "MNC": "01",
                "PCI": "6",
                "TAC": "7",
                "RSPR": "-93",
                "time": 1649150327523,
                "registered?": "1"
            }
        ],
        "m111": [
            {
                "technology": "LTE",
                "cell_id": "131078",
                "MCC": "505",
                "MNC": "01",
                "PCI": "6",
                "TAC": "7",
                "RSPR": "-93",
                "time": 1649150328504,
                "registered?": "1"
            }
        ],
        "m112": [
            {
                "technology": "LTE",
                "cell_id": "131078",
                "MCC": "505",
                "MNC": "01",
                "PCI": "6",
                "TAC": "7",
                "RSPR": "-93",
                "time": 1649150329499,
                "registered?": "1"
            }
        ],
        "m113": [
            {
                "technology": "LTE",
                "cell_id": "131078",
                "MCC": "505",
                "MNC": "01",
                "PCI": "6",
                "TAC": "7",
                "RSPR": "-96",
                "time": 1649150330501,
                "registered?": "1"
            }
        ],
        "m114": [
            {
                "technology": "LTE",
                "cell_id": "131078",
                "MCC": "505",
                "MNC": "01",
                "PCI": "6",
                "TAC": "7",
                "RSPR": "-96",
                "time": 1649150331504,
                "registered?": "1"
            }
        ],
        "m115": [
            {
                "technology": "LTE",
                "cell_id": "131078",
                "MCC": "505",
                "MNC": "01",
                "PCI": "6",
                "TAC": "7",
                "RSPR": "-96",
                "time": 1649150332524,
                "registered?": "1"
            }
        ],
        "m116": [
            {
                "technology": "LTE",
                "cell_id": "131078",
                "MCC": "505",
                "MNC": "01",
                "PCI": "6",
                "TAC": "7",
                "RSPR": "-96",
                "time": 1649150333506,
                "registered?": "1"
            }
        ],
        "m117": [
            {
                "technology": "LTE",
                "cell_id": "131078",
                "MCC": "505",
                "MNC": "01",
                "PCI": "6",
                "TAC": "7",
                "RSPR": "-95",
                "time": 1649150334527,
                "registered?": "1"
            }
        ],
        "m118": [
            {
                "technology": "LTE",
                "cell_id": "131078",
                "MCC": "505",
                "MNC": "01",
                "PCI": "6",
                "TAC": "7",
                "RSPR": "-95",
                "time": 1649150335494,
                "registered?": "1"
            }
        ],
        "m119": [
            {
                "technology": "LTE",
                "cell_id": "131078",
                "MCC": "505",
                "MNC": "01",
                "PCI": "6",
                "TAC": "7",
                "RSPR": "-95",
                "time": 1649150336504,
                "registered?": "1"
            }
        ],
        "m120": [
            {
                "technology": "LTE",
                "cell_id": "131078",
                "MCC": "505",
                "MNC": "01",
                "PCI": "6",
                "TAC": "7",
                "RSPR": "-96",
                "time": 1649150337527,
                "registered?": "1"
            }
        ],
        "m121": [
            {
                "technology": "LTE",
                "cell_id": "131078",
                "MCC": "505",
                "MNC": "01",
                "PCI": "6",
                "TAC": "7",
                "RSPR": "-96",
                "time": 1649150338506,
                "registered?": "1"
            }
        ],
        "m122": [
            {
                "technology": "LTE",
                "cell_id": "131078",
                "MCC": "505",
                "MNC": "01",
                "PCI": "6",
                "TAC": "7",
                "RSPR": "-96",
                "time": 1649150339505,
                "registered?": "1"
            }
        ],
        "m123": [
            {
                "technology": "LTE",
                "cell_id": "131078",
                "MCC": "505",
                "MNC": "01",
                "PCI": "6",
                "TAC": "7",
                "RSPR": "-99",
                "time": 1649150340527,
                "registered?": "1"
            }
        ],
        "m124": [
            {
                "technology": "LTE",
                "cell_id": "131078",
                "MCC": "505",
                "MNC": "01",
                "PCI": "6",
                "TAC": "7",
                "RSPR": "-99",
                "time": 1649150341502,
                "registered?": "1"
            }
        ]
    }
}